0.9999999999999984 1.0 0.12144729195111272
0.3881116032908473 0.2801996579683666 0.19309462656145984
0.5855704941692541 0.4088627503770799 0.3000111014901999
0.6361703643443065 0.9449261374619327 0.6083079502493088
0.6119764824440748 1.2434419935210697 0.8218128408980546
0.5342491760042334 1.5630485718630232 1.093573960561528
0.4395692610108496 2.029182093924651 1.6168161459430732
0.29387100864475674 2.2295485601244245 1.7483466078162087
0.2555686303843515 2.028711825177605 1.3573196854991467
0.23569017078809032 1.8623801806827407 1.2465903705956654
0.23048197125968514 1.8754660566781807 1.2951048235523897
0.19573104035943395 1.9325819141570624 1.3149335771940687
0.21385232317170144 2.038974842998234 1.4657140678556673
0.216218857506322 2.1308806360307795 1.5724746713663609
0.25532917507717334 2.234328778097862 1.650076376660395
0.2933047929681401 2.264831966522553 1.6003505061799497
0.2843311976428849 2.266660291897953 1.5961228399451954
0.28265259489159017 2.13599805335349 1.440215809620771
0.3001733405891337 2.3322654354091603 1.6490094112346823
0.24329272883497344 2.0262944379989625 1.2882315999873613
0.2564850681184 2.283174080350648 1.580977434952247
0.22303325962839218 2.1102531538768083 1.323518703533959
0.22206767120171678 2.3328816386244045 1.5380892750040762
0.19285710061135988 2.6029856631804216 1.8514552007202887
0.20381833011032738 2.5158198087418255 1.720572382495412
0.16703402652577432 2.032482372623588 1.1612616237435707
0.22956818320126823 2.463868086848659 1.6281401446874697
0.2890704179031051 2.165712357428729 1.3040308315541267
0.3976121338055651 2.317288548310023 1.4280164394333283
0.28749338837508376 2.5374500296952704 1.7159536551684929
0.2757308629274753 2.611641970737364 1.8207034121340673
0.26221479172311696 2.4196324439215156 1.556264495822292
0.25131755020182445 2.5184327605066494 1.6810179715515023
0.32058796685168467 2.44025881944837 1.5559175361797832
0.28955299264306267 2.416407313730169 1.5325892909758025
0.21108729824224245 2.7691566281658844 1.9284601720112866
0.29272221514656094 2.6372087053873963 1.7591665634310159
0.2533325025525866 2.218356666188344 1.1522791518552766
0.16808898036249195 2.4555308241956446 1.5673448865753656
0.22446216992272314 2.1628260262542534 1.170230751180829
0.2200580725930503 2.384613261692705 1.3973770352203303
0.219892265216782 2.50857416442741 1.6121666897404294
0.1689240176062419 2.483585769715723 1.4874016501138212
0.20500125770364075 2.255295725021812 1.3402905881140799
0.2631743917636128 2.568308234144399 1.7157933985642384
0.19559661329153075 2.6609397275726203 1.8148066458167227
0.2560168861854044 2.696997913091987 1.8501032809808695
0.28200415528365214 2.4068971101239574 1.490020564880574
0.35149903120354176 2.5711645674883448 1.6923558935460357
0.3412992766733132 2.561920816409832 1.6742565052992926
0.20914296192150583 2.1888720847405065 1.2666001087903067
0.29899175699206104 2.6046270221596406 1.6483414837734731
0.3338347240972772 2.599789008237829 1.6427908719612054
0.33957017553705177 2.5342083069446066 1.62499589592583
0.31818668911482384 2.324914128226435 1.4977544201940516
0.25929587110755786 2.5872863687485754 1.7524325250677315
0.32832242663488354 2.3818607421400837 1.4953918338715861
0.27715271947784104 2.550577027619804 1.7239657325163673
0.270074248417856 2.4738762455973657 1.5700308665062004
0.27322286832672643 2.3849591510981623 1.5034535229543242
0.25773771254281597 2.5672508389316016 1.6166128259244739
0.309041372818145 2.4907067110677 1.5369337410391453
0.33704695246028 2.3854096101163385 1.5176497522738144
0.30015996159242775 2.3609959897539805 1.4683709202983148
0.284969625605281 2.487477475961824 1.5785341825388648
0.26282138055925364 2.493942203570295 1.588566105189491
0.26139360928119665 2.429066534586838 1.5169130611610464
0.2198832856513573 2.4686588998650834 1.5651290947944474
0.23932743959923874 2.5377205054103102 1.5684781175081728
0.2694726018278108 2.6443637840942533 1.6789928234865794
0.2916251055390087 2.589353763290731 1.682383168724984
0.23808669005618033 2.6637501721454186 1.766933607246878
0.2893619967204982 2.8365228820848993 1.9180383590714576
0.3149418774358423 2.782661418912329 1.8709887942587822
0.32663995828857656 2.814950484955862 1.8674470374512901
0.24457037009863192 2.716333640312726 1.8175999566719645
0.20545298335832757 2.670491567623028 1.7070753589665768
0.2492710611789754 2.6417176561267373 1.7632539031227874
0.31143961116056623 2.653533008782643 1.714569631578614
0.37016163273922237 2.4382393129343134 1.4897798026514146
0.3271983957851577 2.5315925651182405 1.630092157270801
0.2588686540264099 2.630536746942611 1.7562246557191805
0.1830869931445943 2.4841465000456826 1.5664422958680975
0.2810273986699556 2.432345033807525 1.4668914935009183
0.34057553031873716 2.557931593110394 1.6179907373904634
0.25592760305288353 2.7563799234422772 1.7913115217138609
0.2289294768019198 2.5419818707268997 1.568135474723035
0.3071001299026703 2.429170049518882 1.3394811971797222
0.22260449679116334 2.6194865039394712 1.6123464039974225
0.20728824565590592 2.537895633952721 1.5917971901381816
0.2044377041267881 2.503250221924666 1.539545400386438
0.18185314471570396 2.7622719308308805 1.9296080750490112
0.28823504683268036 2.3647316091737247 1.5044259865033023
0.22291418449164913 2.5729777299163814 1.6806150919730376
0.2093484104072299 2.5954407036155267 1.727383764361265
0.37000075799160737 2.3307222763051567 1.4272484278621151
0.4584671976360731 2.052885668258499 0.9348596566093792
0.3555868903154212 2.5814961257057654 1.7469517824044718
0.205291736515146 2.2931854508156118 1.3798159012240871
0.3236688132329576 2.3898950144240847 1.459654371514623
0.3555471513757776 2.502043538230319 1.5707861087435493
0.3903515556812415 2.356411553900322 1.4721683674176285
0.34575152467151493 2.45974622034023 1.5443694697915733
0.38025240558386897 2.588199659040968 1.6385126776365233
0.3126809785781248 2.4997128950281224 1.6186992245620342
0.25279651169695805 2.396114823991466 1.4347230192555356
0.21252652327140464 2.324359635435185 1.3800673507582057
0.3195286514969874 2.4749411661816256 1.6006599902001228
0.39142916757483065 2.2025194540201083 1.2657889134296532
0.40157663863373155 2.452495416162605 1.581381354766489
0.34108085331439797 2.3567034107157463 1.5130202594075612
0.2285837020894089 2.347521298322844 1.516057775159608
0.39201265712221256 2.2490830148854575 1.3995190030543583
0.42663606989029496 1.7965077833917855 0.9235746728854676
0.37327672475591706 2.1860799360266245 1.2739639840454937
0.35844815378199346 2.48060110779559 1.6952929935610923
0.4005953949223491 2.190393432307051 1.2090903532258015
0.35780146409830416 2.5207815879159443 1.74691478912026
0.23978911289900004 2.331593828595456 1.4253958929857176
0.2411495849766249 2.3004714570545404 1.509522833578895
0.18962211550613425 2.260804815328113 1.5125959984991317
0.24480285558057907 2.2571872520883933 1.4447573005879795
0.23080507916403165 2.274599940128285 1.4364899329764613
0.18872368133050987 2.3044186773726585 1.4367783322955223
0.1674797453696231 2.3576968254729707 1.5465047841539639
0.2815464368292498 2.511127774493966 1.67394407118749
0.32468900194834105 2.2995788616295347 1.5001366592828704
0.28274437955209614 2.4213765449893625 1.5955564487805869
0.2257226054884721 2.5267815072033173 1.7397018969261069
0.35371596086953977 2.312714474756771 1.4978974841335597
0.3488759067391573 2.1477552989178563 1.24886317347904
0.17675004841096031 2.066311117533006 1.1333063729706445
0.3771650801023531 2.2058939844665613 1.3375286666735338
0.39252297738343056 2.330529651931663 1.4181607268411434
0.2843994521371595 2.322147634829153 1.495820045137949
0.2248523770987214 2.40140504376992 1.5693196371756897
0.3382621580305523 2.34636602008594 1.5129550823182307
0.3291090165987855 2.41739157734426 1.6127794082747042
0.1993392784485802 2.390496223656536 1.5496783168799593
0.22346081890257585 2.3894400865764704 1.578113139514241
0.17641037466299547 2.3335092947890197 1.5494637041865713
0.2400068957369502 2.219945293976929 1.3535481407761543
0.2810871021140065 2.108981459887729 1.2779803688886835
0.2396138964776829 2.0707656190301305 1.0339834611832033
0.25989030416522924 1.9714835944679436 1.0205580849012754
0.24610817914654728 2.233563558795623 1.4298051242710377
0.23838839752496782 2.4146045286792295 1.625773332862304
0.28871039841880414 2.12445343420022 1.2056225909948177
0.27967602366573857 2.1979211159801597 1.2854902333582148
0.19954354917689593 2.356822494210926 1.5109036697081344
0.26042928313354297 2.437325652653853 1.5990035122450459
0.2463094819163123 2.399085296443792 1.5963792863939277
0.1541040247488538 2.3761337035057473 1.5505723613580757
0.23397176606429732 2.2974263462602216 1.4463952281300527
0.2887323676826732 2.237921771098091 1.4062048546844463
0.2744564742770806 2.232816823896634 1.3099620899596576
0.33975767793261297 2.4094600329141396 1.6043128224325058
0.4112921713417776 2.1812560159664485 1.2734505029724827
0.4018315304997287 2.3363275377759933 1.4247490942415568
0.27606718993104795 2.319996788240392 1.4303853765307981
0.3083792044595143 2.1254452038564917 1.1151358679129373
0.43459506542471155 2.1866038366113942 1.242109945906287
0.43500935762207094 2.2277302232014335 1.2711204826947649
0.2167821502459921 2.334910257790812 1.3347235833850064
0.25571347398184857 2.3365536715617057 1.540382785056023
0.3653942906375876 2.3062306963946395 1.4565374406033587
0.39612436825821945 2.444220459929242 1.6405597462414523
0.31166458102269184 2.303169588851217 1.4315546286185392
0.23838469820818411 2.233665329021452 1.3259670810435331
0.25458828588236754 2.3641755816460224 1.4958755108530795
0.3253373428267265 2.444557277373316 1.5968005029899712
0.27440129582013567 2.553507930030782 1.7596978244918506
0.28404257366552005 2.3007111602633628 1.3592436413874303
0.22613532550149987 2.1538977126543273 1.3673457128955635
0.24362033438898228 2.4243038821771585 1.6184638033657033
0.3493049325358874 2.367576513965458 1.5206242075258234
0.40646718594516806 2.223521622831878 1.3703028347661939
0.2836113585173241 2.317413322084707 1.5140391041307129
0.28198980117928035 2.1339554749196603 1.1548716626271651
0.31495674127948753 2.4161040956803705 1.4892543641839653
0.3367900493055378 2.591284330584856 1.734998562074961
0.33611326757120696 2.443709215539445 1.553594390748148
0.3079430706460517 2.382726823906478 1.5897592937966425
0.2848909475503602 2.5353213749154233 1.7428877443678628
0.31659764171031896 2.397100429846513 1.4737056405817381
0.24165687577047423 2.353568054815441 1.4737329198783473
0.2167349407924478 2.3394595677955414 1.4205200070619888
0.31621095332205534 2.321202945149414 1.4279428358765756
0.40557020787266196 2.265400656038993 1.3932723592471612
0.35530270574991074 2.385315208954092 1.4878989173761288
0.26099041635731973 2.267363821590704 1.4740898503397188
0.34330843322033816 2.3338416606511196 1.4438628618867981
0.24588991758971904 2.2725536764012624 1.4436233956048505
0.24644462241922718 2.255594310842763 1.4771666293920904
0.2557386598310739 2.2722337434844775 1.4690823621509481
0.1825660060147891 2.405516467116464 1.5768752573692995
0.226020239070902 2.4595451697342448 1.663656246241211
0.2610100662979754 2.420300159673381 1.6260630660340816
0.241347575436222 2.264410360747885 1.435361115983169
0.27348684813913804 2.219249532202389 1.3493456017439553
0.3315018472592843 2.287764792290554 1.417990036117883
0.270903260080564 2.442017093936048 1.7035952346855896
0.1914923178857027 2.4542631664895556 1.690735130635217
0.28400157204429116 2.3597705296112252 1.5244996312292267
0.38538462626594105 2.2779317466919635 1.3622114363197688
0.44005202823604206 2.2709121382591597 1.3486951317765052
0.2867694042490034 2.165620856453135 1.2419171850703
0.3308526647488155 2.076626043349432 1.2793893835763261
0.30208698233497 2.3557130008487226 1.5359149554930986
0.32782628479869086 2.39720731219081 1.493478996125742
0.33907737090216633 2.36605042589077 1.5372717900014998
0.24228866148766054 2.448197208243244 1.5663974898055972
0.2577167224504844 2.2558943563011638 1.4058737764820053
0.3341994831144513 1.9720074859037215 1.0556816869478622
0.29890522168381106 1.831248995417043 0.8964158459686943
0.1576916608788886 2.268779266753055 1.3649575358129833
0.16663387989909995 2.1136814122035554 1.1975861572123458
0.21197199200547817 2.0925307850884662 1.2341361372560973
0.25961573728574283 1.8981674279403729 0.8851764900313995
0.2697049399312739 2.6485102171920256 1.8392064829127328
0.2397469240061798 2.6280660127400006 1.8008246994742663
0.2008735673606579 2.395376994664091 1.5376371943107077
0.23374132585844193 2.3706462059281437 1.5228829415932987
0.2089309909703159 2.3539521124726814 1.4924233991852198
0.21449432540987742 2.4015830174929667 1.4640407934151227
0.2543555310694305 2.6560272939859235 1.8661255040124975
0.2960525297828637 2.6494370035530337 1.8426475069587929
0.15589259108133893 2.4481636681389176 1.4427747180021873
0.21849611847466383 2.506228043175936 1.5601164230336566
0.35025082888695747 2.6369584375219435 1.6876613104105431
0.36002118722254567 2.409461318187105 1.5164237962736407
0.29531194602545274 2.799279108373746 1.9086872169308458
0.28903018507842854 2.5975684040462963 1.7076453809521788
0.28773778162614466 2.4450107842752034 1.5452778025320648
0.32012779362628274 2.2304859287435383 1.2854571256225162
0.2895089183243651 2.3571554614902075 1.4235414309912053
0.29836702624356237 2.615298259435382 1.7742018555753925
0.27844166981813673 2.4334463155924864 1.4633708679058826
0.34968113290393643 2.617174932903288 1.6919279760765797
0.35730850099644 2.7152081484982786 1.8158892650859426
0.32136407298870917 2.605393253557272 1.6809015630361779
0.23162290042581082 2.54819620776251 1.4848405600948653
0.2304062851207277 2.487909166286699 1.5065335569880534
0.3465082780164741 2.3813034670681428 1.2591714390459756
0.38460002489764294 2.5310121254501095 1.5870787991857176
0.3931870653649957 2.576220300708845 1.6672574953785373
0.3954183050007414 2.552360267075153 1.4891217799890737
0.26779029520003245 2.7125494661511143 1.7795114999537751
0.2157120810753149 2.7786939251944345 1.8032733786776685
0.2947988050202983 2.6499081105107747 1.7794882966337648
0.3150739776868671 2.585075797404572 1.711311899121967
0.28522900187640127 2.5152625859395426 1.6247189615166784
0.2657282834497887 2.520564648320881 1.6524709154943404
0.2628465526334889 2.345327373463368 1.3487166650796973
0.36389422228885093 2.3958394834533014 1.4091200076002948
0.3075702303132558 2.5219021742529764 1.6140299728444034
0.2593535073297668 2.5981584211649515 1.6312372427642454
0.2848769745252666 2.622500302290987 1.6979609218906502
0.25125783895042847 2.413634944950762 1.5244497990981274
0.25501256142053774 2.4680016250008614 1.595863269320978
0.193104901897284 2.7442955703940126 1.9012681336735133
0.2664214223598357 2.7467291085612784 1.944621994977528
0.2903968929001718 2.4154646576879135 1.4315865642123735
0.36159683243562246 2.521786059501069 1.5989701446049132
0.294652941563841 2.328744986594369 1.4306357003512236
0.1987785140612316 2.3091629440234955 1.350194285704729
0.31935430885349547 2.518902841101488 1.7116542758935813
0.26673000991733364 2.738769349619916 1.962597626416126
0.27249980924890177 2.5773833356828066 1.5697919223360537
0.2889723856393846 2.297538863049672 1.4047135397711192
0.24245425865471187 2.3072070794317843 1.2921967784340926
0.19019632535154174 2.259216361546619 1.2931530358282126
0.23198126362763316 2.4435115315016263 1.5416811021993355
0.28260265297134546 2.4788611204804627 1.6624207347751334
0.29949232583410457 2.493029194974844 1.6084069140720947
0.3000488989910152 2.4973912059193455 1.59714045839142
0.14490197654326892 2.2286475657966864 1.3314260741071926
0.2678028543618569 2.7573959450366026 1.9665136829350036
0.22424597527972365 2.55694983186076 1.6867896975887668
0.34153645167197444 2.4054173666955667 1.5838834176519068
0.3499091308941085 2.3622933117869858 1.3734179117304353
0.2643972580870929 2.1844368915362393 1.2477725830788808
0.3485524079957389 2.468997311768214 1.630508017392906
0.3764384302693963 2.018152098779872 1.023309195651528
0.40308614193134007 2.5414915616376694 1.6883014841895458
0.3520523471225654 2.4240744030107138 1.5499615924738424
0.3041884060998857 2.4705846204530526 1.658915467542221
0.3536676862309646 2.26104887182333 1.4147036136415143
0.3617315792638387 2.373478571364508 1.427756738753871
0.3827629493867347 2.2359446043307645 1.3484429678515826
0.2622444201762824 2.519406001053409 1.7079015647248486
0.22582954273212097 2.519404839462767 1.7009918317633304
0.3926988309676497 2.363390054244289 1.456118880427658
0.4268024020888347 2.2553064272448333 1.3340908189565484
0.41107353215795844 2.1626879429040238 1.34931633086697
0.26017952756187585 2.13847801006404 1.2779220022848539
0.2207815243029803 2.3136208391220565 1.417684744433542
0.2106217286291314 2.2356514518922563 1.356836616200337
0.29068274564188273 2.0729802088464293 1.185461474926422
0.3120648082913034 2.334116881021515 1.5790308739344987
0.2981568025524033 2.3748217769784317 1.6120511380535187
0.24558517288332718 2.3250046147160983 1.5228349813944404
0.23354643262412994 1.9698634905017252 1.1894229020982163
0.32129486735205015 2.293090486548937 1.5234571186529369
0.38533625649341524 2.184627864130665 1.3445380344203763
0.2556747675846649 2.364968156853167 1.572318035220728
0.19602699171690258 2.362412812579713 1.6006151783096365
0.2803329260837077 2.2590621000491002 1.4496791179505535
0.27716510716843556 2.165476181265237 1.3703677751384162
0.18495218186516893 2.2508051853526436 1.3329633563210819
0.2830625733124225 2.103159674330546 1.3017702347424858
0.25565472170240133 2.093016057824203 1.2559301871473594
0.16753593760009633 2.2865279376729926 1.4802828932831638
0.20388338809666698 2.240890849878586 1.3595950732596949
0.2387313220559554 1.946915859475576 1.0362478756110192
0.20487895706084835 2.1003898525313915 1.182563681731206
0.13743873444671412 2.1487175877327513 1.2653779462370152
0.17903572300854537 2.282711708243923 1.4493799525093685
0.33657308631425686 2.4389194228434743 1.6367399886029004
0.31251561817112544 2.433184739711809 1.6418115375384348
0.3174646490210668 2.2378299360425187 1.4370987945843452
0.32467781238376786 1.9162765750790467 1.0799809733079746
0.30120086798155465 2.385054591532025 1.5930470825343273
0.4182708734171842 2.303983575740528 1.4741815533307652
0.28894627936131145 2.5052328998316225 1.76745550680172
0.18105846677303683 2.4158483239358004 1.61758344996531
0.2535669039004652 2.194739671047577 1.3979691519579815
0.2646107258472481 2.020642691675159 1.1842835600792465
0.22299123793283712 2.2998355761770846 1.5196462912914768
0.18610608301328052 2.2534979918616327 1.373072268190151
0.29124647167797624 2.275967333273691 1.3534040028375327
0.22727456012143277 2.1735187570985843 1.2422483198425092
0.23801556124311876 2.462619150851276 1.7167675940294855
0.21221798072801631 2.269810999843404 1.4815607565765343
0.23238849791944746 2.2444943306402685 1.4006533754095016
0.2215921601268807 2.1861835494142126 1.3581947103027703
0.25985189887278465 2.321743927839955 1.508733230872079
0.16978693407793222 2.1769753314892646 1.298202780368229
0.23671396933275088 2.423746507746076 1.6493656082261896
0.3662481604604071 2.2605669750233135 1.44998042742353
0.34342206905102857 2.3248993862703333 1.4535649077089374
0.4076288923092896 2.506171622491456 1.7187790928329605
0.366485613154567 2.4117717399100767 1.5506522966560674
0.2845539732454464 2.4649368759220525 1.5879619431114969
0.3156697012912802 2.531693368418548 1.716390072691084
0.23112281779868277 2.1212034125711114 1.1517316887108713
0.3249788521897639 2.5574051380374616 1.687060182261218
0.3829702513631573 2.3780355190330424 1.4023557299192904
0.4237011004085863 2.572627690071941 1.701599416140021
0.41089362643109734 2.018398786379401 1.0986780243444836
0.32480829504293574 2.454988660608671 1.623193544806601
0.2980170965886603 2.6326145304417747 1.7843108453905954
0.3078174233665076 2.5329901470420864 1.6995576819350375
0.3534521761753303 2.541733987539559 1.6791009565617703
0.36703450683152966 2.432598947077471 1.4809824918968388
0.3142175760362952 2.2845713920901525 1.2221661853890768
0.29341978200363733 2.5852301335608128 1.662452571766265
0.2357150562374398 2.4233138260938833 1.229397890707428
0.3377198316854592 2.577979676313614 1.590822432766438
0.36196993316333126 2.367356430572458 1.4122420251723693
0.342844906566949 2.2314649976430796 1.2358743108502939
0.2967629949048654 2.4950452712186943 1.5857386581799828
0.26505384741782473 2.620045438367625 1.7151176208446806
0.3811099289853095 2.3980094988194285 1.3972664824192964
0.2897212170278205 2.3356029834178917 1.3862688643728993
0.32732291216829934 2.3929951232879936 1.4794500325764788
0.39823437247981947 2.4876758516408777 1.5805946302570597
0.4512503525153719 2.226284138473826 1.2300827787589912
0.33707953594780016 2.396741685399917 1.4370290993015593
0.17473732266455072 2.2178171075719466 1.1173293248452414
0.37861026250584995 2.4045118914761834 1.444943164689822
0.36465502453697 2.5549815961286604 1.6870615310099408
0.3242265175761189 2.7118335198061443 1.8556199775259279
0.27604172714023834 2.723677047655855 1.7593003341026794
0.1255189780938766 2.1710044536443336 1.1565994803207382
0.16965133279513397 2.121599855730871 1.096640136290169
0.22019512245907014 2.181258093284564 1.2456354753769534
0.12716284428132546 2.3669014507739163 1.4380070158000928
0.23270679452680954 2.2777186397241374 1.2588750668339335
0.23658417208954094 2.3907717308327303 1.361447946244127
0.2533117046273206 2.466174365841935 1.4933139971589635
0.3563933451423615 2.395740644084256 1.518635824980052
0.2437131855649138 2.4384811147492416 1.564376648063861
0.24417485285685114 2.733964356803413 1.942561558740085
0.23569153343222507 2.4365655324121986 1.6524965187107474
0.2447548577343185 2.417353903075057 1.62723777183961
0.228453315249129 2.717655521070119 1.8812502729957359
0.3048862103700186 2.505718322829231 1.5739096767179785
0.33388100556952405 2.490461503966771 1.606147348346906
0.40159191415994283 2.266385077183351 1.2508860652309217
0.25797982755709686 2.5485882254845342 1.7349730104709822
0.19873970731912943 2.369913631545286 1.4579303861472692
0.2416767475405676 2.4408189679523837 1.6581699867459165
0.22477991499049438 2.341615863598467 1.4671885163397425
0.24618969434621338 2.4140393503246513 1.6427364870754428
0.3373621366312385 2.276616439573533 1.499731017078213
0.4879299165854783 1.9802967093370778 1.110787338841198
0.32123066801853684 2.0516014088487005 1.1701771252385467
0.3211726116078777 2.2068164363032343 1.3403758113449369
0.3858686968635411 2.147148807651774 1.2647735233192854
0.33235668141527097 2.4421086534611356 1.6456187552438641
0.21187240470082497 2.385770080877791 1.5331030321039507
0.20884577480214217 2.4328490443780564 1.600245540778655
0.2414281208131483 2.2209016768564687 1.4344851411882784
0.24018677259330104 2.1440336758057525 1.345211315805262
0.20799064245824037 1.9843960728229784 1.103904568862676
0.2453043642700411 1.8003802958232695 0.8768443506170107
0.2552588860404943 2.0003395538268234 1.2046776687304355
0.21765896424844874 2.2024476754804363 1.4118626077451313
0.14897497143018223 2.0714306802799918 1.2199929626847608
0.17966557240139586 2.2292487629093896 1.434764915880222
0.2207315578341063 2.3366558303496987 1.573399599643454
0.29849136487373235 2.332566348310635 1.5987656896547404
0.2909875200064642 2.3199499534847563 1.5222670315807163
0.39926120676898313 2.2766819629794193 1.4129240381782726
0.5099584970061816 2.0615510385888407 1.136752893180922
0.4570742177961256 1.8874432296148307 0.8896317475057738
0.39085775555900637 1.989140021055938 1.0450589060132915
0.3039474626435424 1.9969645559011528 1.1382366129435042
0.3157729801827234 2.043814115880542 1.2304493651210342
0.40434904769166663 2.041340029182283 1.2611536240436911
0.3956348630624675 2.1945103599581235 1.333276493991431
0.267837192557331 2.4334493951611385 1.590134612166898
0.20299991609678641 2.4567350952587423 1.6385131168756397
0.17457889812367006 2.3917872649509357 1.5097811268774906
0.20644179568108384 2.1345402133676736 1.235365256691071
0.2574555460753424 2.032366320135337 1.1242226202292083
0.2801111100870612 2.2747634015770566 1.3568554820967673
0.24055131746312025 2.2603453895998746 1.4228453208099563
0.2555201966939506 2.371766774400624 1.5202554543695708
0.2346923994276232 2.4814464687146476 1.6553158241037371
0.25618680425718576 2.357178629698332 1.4834843145792114
0.27776619948709613 2.6204900240001865 1.7890168341318644
0.22663961576254885 2.628697984447337 1.7637578048384162
0.23227609214449604 2.630109650710423 1.8036180661479404
0.21516114205219242 2.4375308005415537 1.4651311544796246
0.29133472542084327 2.4864302359303934 1.558232274882002
0.29962978881444013 2.5660195185763697 1.6566175632744289
0.20189392851068558 2.3408951118176122 1.4069744062436893
0.2507986782192459 2.641650624983167 1.7436169323210684
0.25279035284121143 2.4914821219282826 1.497671053609406
0.30567803516830927 2.3252298276729846 1.498148365780137
0.2226005909262202 2.512129457114887 1.6627034771994662
0.2175286537022284 2.5643643884206284 1.7102020023227158
0.2825715171761848 2.5101262546169436 1.6631678587833003
0.3974881375424318 2.3904975478062367 1.4723730414165532
0.30477444969595896 2.6018131364391905 1.7205802046999692
0.22644904724106807 2.5807730670243196 1.7002294199746748
0.2235672823159827 2.482201504280271 1.6681312123627245
0.3316000839854467 2.3141001869654594 1.425207141491899
0.33343841400756263 2.536949865203728 1.6487030492069623
0.3382732706215043 2.421160976316057 1.4643286741387849
0.3280162012184373 2.6396282322015647 1.8316510704400621
0.24250485241837488 2.4501693900436585 1.5699527245773215
0.3131963097243161 2.3407127486690698 1.396976861334426
0.3276861691907138 2.1162264259752273 1.1482725574168597
0.3557613838658613 2.1255613180267177 1.1054028385835588
0.3103682158542438 2.4675049951186168 1.49651285503133
0.20566148466271056 2.4494352197321216 1.5059412183590992
0.27820427842244233 2.2988215709913544 1.3342776657842077
0.3321839714326214 2.58227872771668 1.6957242979435558
0.3087189758376477 2.383342571787308 1.4990937476691995
0.26882940495422325 2.501465607714341 1.6648727504790368
0.32957223769939753 2.3629826576214774 1.452044627360367
0.3933043666029883 2.332501043160401 1.3739435783730964
0.3317303847637636 2.556269623421993 1.7388122424420371
0.34941904094440707 2.5766527749917167 1.7600348501897574
0.2784623507950386 2.3440261919298107 1.3771763923559392
0.369577504230704 2.28959707453138 1.3402001623222248
0.4958073070469356 1.992745256349852 0.9639768424298847
0.32333105950401514 2.5755162790748365 1.7489600486371206
0.2396730601353758 2.4458654440719463 1.5961523264069204
0.2198697931503898 2.466779837224262 1.5792060567379154
0.20758028278918209 2.5307336689867923 1.6908522220672062
0.29220283797858415 2.625248041602311 1.8070349115040187
0.269020066811679 2.352798261165632 1.3981032991341864
0.3446207704561391 2.2506452338896805 1.3626413182047794
0.3370652212214079 2.314094492828773 1.4823045463212392
0.2679331439815077 2.3998304517942963 1.5576783836281212
0.20007884709864238 2.434277890814577 1.5421275331976412
0.31224806840030916 2.6078081669491926 1.782679295229369
0.3107100235251215 2.5343399135064217 1.7664638069942584
0.25832766309026783 2.362064347398503 1.495223089297734
0.22070611438195692 2.227779567471849 1.2837444026241416
0.2915690625908598 2.4458999206792003 1.5816813822890228
0.27289537146372667 2.3870674342906235 1.5670989528863992
0.1775113197221332 2.5709824686066742 1.7117423572812225
0.16296637091994032 2.5567564244837353 1.5996718680887294
0.22117947569111995 2.376898743756512 1.4209924840385642
0.2730548438102043 2.1164302059374083 1.1392869896746074
0.2278896134247195 2.493799506615835 1.5747681136339533
0.2123401631419639 2.8315925458177205 2.0065258623278917
0.2245954189448117 2.646753040955321 1.7532686203741155
0.2609363390208975 2.6154244837432876 1.7547373076513677
0.16054472695425617 2.3787964412295537 1.5559644321825958
0.27606857708025234 2.113408113811269 1.2695977930305
0.28942777449491347 2.3501446732470255 1.4896978813462745
0.38142091884205287 2.472687024697311 1.6093034564303559
0.20106316804284097 2.3082792813902993 1.26543064528957
0.26132450315990746 2.4286111291824817 1.5811069990588176
0.38883774291628315 2.387466510086429 1.4708032293073667
0.21219403290081723 1.8930838026507304 0.8698486559710391
0.18325543111219866 2.110693615504952 1.1386608054016234
0.18349500418954684 2.122056594667489 1.1027812006938107
0.1285093953268136 2.3887697595923374 1.4311122568069186
0.16286830338878702 2.2017585987953385 1.3575330162274142
0.19891954332301687 2.0393972068277444 1.1683354661336418
0.14469716305828453 2.053974359913356 1.182435359404484
0.16485933730824173 2.21656845264528 1.3550054787904686
0.31090358590774625 2.3631586702742164 1.539335995309995
0.2870423995491862 2.340244233103759 1.4998309335485989
0.2756582436248129 2.3738341126506235 1.5877976115383774
0.38781179810946964 2.248812324767804 1.408079552443325
0.2969644373699024 2.2037507575057895 1.365557263274857
0.20245075514123131 2.3001122980217654 1.3997673011155385
0.3273772120871062 2.204538254526905 1.3051891605227173
0.3604692978128795 1.9292121911830828 1.1238362179268009
0.3158024516487512 2.397213840703307 1.6585692326848642
0.2910533362605509 2.495688742937441 1.703014676365397
0.2430404787501232 2.399217391379449 1.6168734770409685
0.2952823214284263 2.5714193765826 1.7776437683634843
0.3140747398372313 2.1439022089742443 1.3372889205693421
0.3112241462447843 2.5285658613216633 1.6871194935232772
0.32286190938768233 2.3442019097097817 1.4914405874174843
0.3689103036774131 2.3452029807546295 1.5782188455067707
0.4711549142035525 2.125981854179578 1.1485854663045585
0.32699356051050016 1.982375131550198 0.9913310581851061
0.2934057541029154 1.8980924092855447 0.8759184956011976
0.3620060602220876 1.9744434393875916 1.0354197644587655
0.474964958546736 2.081662179941679 1.202049097935501
0.4063467747553398 2.1640515925915116 1.3043729454091442
0.2992153116770706 2.4523002341976206 1.6210457037991364
0.29541544971421685 2.5022628988873006 1.7312828875987767
0.4063063927805865 2.0116203182962433 1.1285404125255987
0.24832211648948868 2.08560715774491 1.2390720047675454
0.2423613201293647 2.0804188793096525 1.238851924162991
0.24052711302935062 2.273780776497498 1.4602287767528799
0.1860387723729442 2.069405560470038 1.2586490690347618
0.24004139939179034 2.5277438313510125 1.7642158193481698
0.22277444663518586 2.3764818951138773 1.5925271931203409
0.21570972506862154 2.3411487665214494 1.5056329818430287
0.31535300302814423 2.3245493141973115 1.491862272199488
0.21285626898273305 2.5263462292322543 1.6950400811966868
0.28110346686494503 2.7242548416283237 1.9963909203156602
0.36809186486895495 2.459721097803791 1.5379045149014128
0.21045435043270794 2.2735168016838037 1.300234821099718
0.31048118145343107 2.504463620278415 1.6529159445361472
0.2546739538233557 2.3689645781876276 1.4185190826235328
0.22592885492588494 2.4484334961596605 1.504481624533839
0.31949768873087314 2.2763486280364624 1.393792600828509
0.25254461813889156 2.4593025564234687 1.5535376464368813
0.24799647934862676 2.1367552373073306 1.232246431118948
0.1969709578477675 2.50502945302015 1.6510811615838998
0.21283060734760728 2.2236961513593654 1.325353765373024
0.25844807509878426 2.3128687491455002 1.5008288058798958
0.2561081495706512 2.0275176071480763 1.1122015679886192
0.31992014409364167 2.117778388661739 1.254323914489999
0.2778817685304228 2.2696170422845756 1.3263341738680676
0.2947089606285403 2.2053217570032317 1.3458007898461877
0.2732636000841513 2.0503539347402633 1.0839006834006537
0.21803302857122936 2.3966964820206322 1.5608204457287012
0.2959088056760772 2.4830359434364375 1.7252081479386752
0.2561669685996846 2.252670511167375 1.3531166749354515
0.268522249126191 2.2694968454904942 1.3479670678051634
0.21238726279513845 2.4085470769373134 1.5675967062429719
0.3411515955966198 2.3389208799799426 1.519821441222803
0.32252102801555504 2.254913290151679 1.331686803447344
0.2879697333721078 2.3248288534400277 1.4796681280978687
0.1942039536693251 2.36876455330061 1.5067448213588182
0.29737072307867213 2.2882219665736847 1.3661922552792047
0.3084304196918684 2.634403109998013 1.8264643583598936
0.3300884271224174 2.521392072299822 1.6575314075700864
0.49717802057302923 2.051556169837942 1.0120778349572466
0.3578658185391187 2.332272199541762 1.3112353386027085
0.290207745417691 2.309937261038429 1.4204653143858543
0.3444827311670979 2.5567289947764857 1.7530497398718814
0.3497050253296286 2.607126981458289 1.7712000819877025
0.2920477448274359 2.2493980731651018 1.3979292246468142
0.2437871982220029 2.3950136846713788 1.5843839788980407
0.21933176315041047 2.3671614979323783 1.5613115445069994
0.26951330634015447 2.3823692666026592 1.5551886021519616
0.18099953425615808 2.1069505806260516 1.1344448921077352
0.2436722865485237 2.1666296053228167 1.2779294113889887
0.24157155962254753 2.121392622245642 1.0005163778911534
0.1796022383859449 2.196048238496711 1.2760728619380148
0.2467831751148435 2.591513110363372 1.7804588732572846
0.2546701265474567 2.4425409154378066 1.4430003560311129
0.35077982539258273 2.254037285535503 1.3387175138392908
0.3358018165845271 2.481117863908972 1.6922744971803199
0.26635796840726367 2.641189147911502 1.809290842703048
0.22529972928984043 2.5003507022987357 1.7084654799441314
0.3037673020867351 2.4296137292389575 1.5708681501771224
0.3477267302369506 2.375011795109576 1.4621891893641792
0.3885005486404783 2.1642807023355264 1.2336129673561793
0.35093376910752005 2.4907959900421446 1.6438040213200646
0.20099922200725076 2.4200646971422564 1.5487805707906743
0.24013357233146615 2.4613475487842384 1.5832560760251386
0.3390823107014304 2.260218972229622 1.408497413682186
0.24833104930614397 2.374284822899785 1.454732742892103
0.2609983731179758 2.476814792497331 1.5805300049753979
0.33926539286870006 2.4774815004858217 1.6376931721445627
0.22620136977938188 2.623405117924984 1.8552393725393335
0.22553063436583526 2.395218988456664 1.5144046814845762
0.28718901693015486 2.362647919724698 1.5229374659433497
0.3070190631389727 2.4111911482811634 1.5384755580286502
0.23326551746750854 2.4404534955901127 1.608342240691563
0.2472837140172437 2.433963799597732 1.669404604947318
0.21314699456201858 2.39188405659123 1.463941131735802
0.20500126024836762 2.4428089667722577 1.6206515435621276
0.27340635994828766 2.1494705320087646 1.2466353387865543
0.3058868316626342 2.085481362667581 1.201315861193188
0.22827605222876649 2.1413667647562478 1.1546171257436872
0.21937838565800125 2.228078010361351 1.1686589662312132
0.23568890443154275 2.436233155050919 1.6371752128898687
0.2219048702041264 2.3468684696815085 1.516639432101373
0.2562389589324155 2.283053914821295 1.4315959864418155
0.32974113251532705 2.3563106520749675 1.5885718782766816
0.249332150169779 2.2625375974605593 1.4376611834700137
0.2725531974876919 2.282341843127078 1.4715492478782957
0.21897271296756485 2.4442628933240957 1.660642043596488
0.2963970148576157 2.3987252962067225 1.5930707485487503
0.3851994367601006 2.181311664303532 1.2760803778790468
0.3808801971109956 2.198244986320027 1.375030086924429
0.3336510715424877 2.0225830008733583 1.1609786216609117
0.24318247694120093 1.9693241069343823 1.1495947538048585
0.4000142047690856 2.277302938192641 1.4046200508764584
0.3628219051584382 2.348364832499827 1.433849307369048
0.38414867082864995 2.2234474936897373 1.3678243402601264
0.33982189077838026 2.4909778881306566 1.6616813331904805
0.4345317958395954 2.386297256724194 1.5076602381640978
0.4656920014762074 2.224590029725833 1.364692613381315
0.29679279462707525 2.0371757888436517 1.1297249432877192
0.2834470454493158 2.1888290842262137 1.3189113172810631
0.3357261438456979 1.8943513508217704 0.9377101450539084
0.45191138138031334 2.201094654815365 1.220757944069385
0.3547949524212655 2.463461565826367 1.5859830094760798
0.32008335741718613 2.6561289790713847 1.8174083054989885
0.31246541081510315 2.6023940332821383 1.7538497730173621
0.29157225481864607 2.494990724263591 1.6586618661356367
0.309850321539588 2.430795243469571 1.6161729368101518
0.2713870872338433 2.502604213421209 1.6689473299139153
0.23356816506510564 2.230084395304614 1.406636264539895
0.2901482977492402 2.4816536183882043 1.4857005775520409
0.3559165872626753 2.618823284869413 1.7085018635931288
0.2472498688057059 2.5425457593793492 1.566290299843097
0.39826963019052253 2.292255158121891 1.3523689348660612
0.3610359905516912 2.37203872214799 1.44612870797217
0.30672495621912427 2.690755437070527 1.7908518773598339
0.19053432560061562 2.694487787047042 1.8606819172675406
0.2582490051206948 2.6111927843912666 1.7352589465627817
0.2784577276058182 2.3800595507092828 1.5448722796926737
0.2534091904638604 2.404535778835857 1.3802264213226778
0.20081793724746635 2.479382478292118 1.526463748006361
0.17684693101626422 2.5555091108082304 1.6543019491191555
0.19144027520249013 2.4792585915947565 1.5683743812574091
0.19853394501742566 2.1875332860552974 1.2378333533592627
0.14316669936894452 2.272525557208284 1.3972483026445484
0.17886292088541375 2.367786158767386 1.3821430531013934
0.2043936114424409 2.1337820780585646 1.0005249740995392
0.26770660984313616 2.022010133423965 0.9883218191543346
0.29667201645310526 2.355849413301477 1.314271121772545
0.18481773755749967 2.544802917002171 1.6640453224312277
0.28240420625766127 2.5610280757257815 1.6672317913310943
0.27258849583304656 2.264036637803694 1.2742513483668656
0.1669245078128064 2.4210587291695047 1.541977725207299
0.18629436517899955 2.5886052449912307 1.720801081901066
0.2705743288975434 2.5438915036028473 1.7004933448923536
0.31544963075389804 2.7350787972972026 1.8963416626870309
0.34776565016621885 2.562532138317334 1.6412412590386045
0.20713157781262653 1.9897869019846637 1.005398632715973
0.23036827393772585 2.2604753939372855 1.3315217844795335
0.3159528468855346 2.2631174944624086 1.4352628924663804
0.37198347300375123 2.426665632158029 1.5071772042043674
0.2645641056369253 2.5798575717207717 1.7325328155511235
0.2621018374507658 2.6009888605802414 1.7005390491149401
0.21741960865993606 2.307866103086009 1.3522177422891553
0.26891685775947727 2.59178820879559 1.73143512741389
0.2889554586317422 2.444141712314695 1.5368018531615086
0.2839804523716461 2.4604388041180085 1.544080560849133
0.2481622513128534 2.4306124993685594 1.570264360525726
0.21767707586178203 2.337504351606953 1.4633218212822685
0.22245321876294222 2.653571145860046 1.826205315156442
0.29013139381693703 2.4365122693265264 1.5764251936256393
0.3074684850457546 2.330694040063903 1.4182905235806282
0.2930705953736718 2.444095698554402 1.4664743115897385
0.3490425945606926 2.5071681015358593 1.524033219982283
0.30041101504715106 2.3369628490971817 1.4120694214938168
0.21534579329464817 2.5722019054761134 1.618578701783874
0.22062462313778922 2.52894489062567 1.6328617005821449
0.36915211474786064 2.1366015389731032 1.2073274070962388
0.3463282201590493 1.9139903371659093 1.0025502165005624
0.34163153291107784 2.2902164923711226 1.365059397420903
0.23041704794416162 2.2726004149255306 1.3659304396626595
0.25015094085182626 2.626628052391685 1.637140534355857
0.2490699970200785 2.6004768982839357 1.6960806441144693
0.3627138570160461 2.471016799333966 1.5703604588916629
0.43742652605380444 2.3335430391061913 1.4189255834945758
0.26438283710394683 2.4910504304340764 1.565129209704005
0.17483547760556117 2.5420159459048968 1.6328089140543778
0.20890727552340832 2.589593148080794 1.6672083452046855
0.33906742702835113 2.563049406466737 1.7133705640712498
0.3920408642095253 2.2139865405726473 1.3177084927001868
0.3554297093626179 2.353878771147153 1.469427223415855
0.2579710520383802 2.3407152495999624 1.4745467795390825
0.2955396749551242 2.6614178281662415 1.785971198092645
0.2381357492731042 2.525173499668249 1.703189991079923
0.23402842632085064 2.5481340431171833 1.6912780525502318
0.2978178172453296 2.462107749310531 1.5930084809528784
0.3219233710252214 2.4127352354934284 1.5527894502420312
0.3990220585137934 2.0821868989533865 1.1739429233284828
0.3767675696476853 2.1979388056291573 1.2695157025927981
0.2202836238719398 2.3071508096547566 1.4311563671279859
0.2007567488991279 2.346861702084107 1.4977940018032425
0.3106877351559313 2.0459505197817434 1.1501211394981392
0.37547960924683754 2.307230006070949 1.486385065545324
0.404696691044313 2.2430298603948984 1.39693350193422
0.2893423582130416 2.332647251897906 1.5116028519774793
0.3260626146528273 2.293563592109022 1.4390297567243369
0.2939952497949185 2.194216847259081 1.3579719991628885
0.289494192767747 2.236808568278026 1.4041902557227264
0.41130413835052915 2.2601205331601557 1.3825921349676364
0.20259019215998714 1.9436837410582477 1.0922023035860584
0.1776431132872712 2.2432447256528563 1.4826781823419153
0.3032455901239559 2.3627805601898233 1.6329611434993825
0.31681238041776605 2.1575006975664057 1.4254518131944636
0.34819225210350246 2.2322026492132556 1.502148337009623
0.3695371652613327 1.9020726638587988 1.0698084782595922
0.36001752393196496 2.228586921714228 1.471954825303224
0.1912310388550943 2.207220455312021 1.418512500377637
0.3715332858268035 2.074373905165204 1.2665926709379294
0.4361188739781471 2.1960936689550503 1.4060592754988976
0.37873962278915885 2.15783372770699 1.4305154546888703
0.2540245323606716 2.2081929521938926 1.5362716082558985
0.3024949727727332 2.2622314234513863 1.5229567867984033
0.3092793568326416 2.133857050677266 1.3976737266095958
0.30243605010917346 2.241502513522452 1.5160147668841772
0.26668437671892586 2.193457800314481 1.4218812457108796
0.33905194940331757 2.155629225190588 1.4261898183700792
0.34295588081412054 2.19469511784605 1.450798135411966
0.2471573195924126 2.225243171878651 1.4542439371492049
0.26782521864252956 2.065681143171885 1.2855808644140216
0.26408391163114786 2.067500045413263 1.2898311496134496
0.3068487710403894 2.050598644378655 1.2605929265619003
0.29802765338782033 2.250361403962617 1.5009212834144339
0.30635346840595445 1.9821250181079504 1.1266107251076252
0.2672768675720045 2.1352640522982704 1.3488411532323146
0.2566539529333605 2.1696658215398816 1.4415421258648622
0.2798467637475189 2.158977399645018 1.2563877932715262
0.22856733521339118 2.3157727428470767 1.4609688867803872
0.22857617947729938 2.234164285180565 1.4667090497632276
0.16288457727195466 2.1035719153389145 1.2281450396355453
0.16947412363212938 2.300765599692574 1.4694050254253554
0.2009900453244894 2.4489740914708062 1.5881404442891323
0.2002723050574183 2.1213183856163553 1.1058678799236858
0.24269554763604348 2.176366913146952 1.263471632055509
0.2296863964916724 2.256075785949594 1.3275571049635084
0.35456754791731465 2.4384943642654444 1.5743859077054019
0.2911720561749651 2.5993090619372947 1.761647545402017
0.19232602279980815 2.586456113164121 1.7285749560438397
0.24477172232980796 2.5083777029715217 1.5875395256007354
0.3336312607772716 1.8853704457127378 0.8310757221649522
0.27213268039628963 2.436427681019197 1.4708495858073212
0.28691329236230917 2.3282151328277263 1.3671073851736302
0.3775473295877949 2.306226811639862 1.4270728319506885
0.33173227475941236 2.633285093306142 1.8068422241440447
0.183783202171864 2.3506674497422457 1.3642028686254213
0.2034019235126904 2.552201934886455 1.783376470952182
0.2886477962992252 2.3953025494273907 1.5443397256197104
0.3064914616692123 2.333717659965764 1.3718123893625402
0.2762904858280344 2.612018491152571 1.7579920306474706
0.25428645147469775 2.4962348893671638 1.5818711955833156
0.24758359285226614 2.1665404396782053 1.2231626881021107
0.23701288812935667 2.443728861559101 1.519647856457945
0.18431198643149477 2.549740162868059 1.7123263702119305
0.182039873290895 2.5561418026307474 1.7067722531678473
0.23941501853962724 2.54666489242791 1.7039703368133614
0.3393168133839521 2.120182369787773 1.2211442132316166
0.3211724685278654 2.421421817378167 1.583798960055199
0.233428863056055 2.543619767341409 1.6887066743062595
0.22582934977334404 2.4844298163339626 1.6263466963125504
0.32481493145932894 2.385578377975661 1.5403573101416057
0.26622517813368707 2.26555694664612 1.40202692506491
0.2614530996719262 2.5221865332587914 1.6914621704915882
0.22097045325449696 2.405691208677881 1.579705931521211
0.2743209786531341 2.4385020148979475 1.619763162356916
0.33923182090325543 2.1334862790501457 1.3049775906457752
0.25233383189385333 1.9341405629972706 0.9363792158363273
0.2799247641784113 2.0933596031104833 1.1948487946094628
0.29072253483846616 2.3328917035198136 1.50254616524953
0.20399083458787415 2.3017256951879412 1.4745583764224406
0.22979121486374404 2.501675190670701 1.5767412049501488
0.19153094854847902 2.3265055750915593 1.439226307389056
0.3513832076022982 2.145714939215031 1.3106732135463404
0.2976714068751736 2.1764695386741364 1.3351986420250828
0.21965007765237415 2.125177051590924 1.257969876007566
0.18286107646665176 2.36902347207307 1.5040086632351048
0.37846063996349866 2.394085640480839 1.5734910564809306
0.30017730470477816 2.411586665805587 1.5674108246991842
0.2752099288354178 2.321680544942991 1.4638954221003382
0.2795255508022985 2.436807933333157 1.5621452807879515
0.2567989864358566 2.681360615157943 1.8283689253308366
0.29323008586486576 2.414607371011508 1.5374215410979448
0.28583895121950104 2.6911010118328855 1.8266539512019537
0.24315760757593866 2.568562999149232 1.6743410160383696
0.3748850463785558 2.279070534820647 1.3677849920910683
0.42554741891087106 2.2345160638360397 1.199866791420454
0.3626153976106004 2.4195704360467887 1.4900017862134467
0.26218579770062117 2.616671530522633 1.8005526515491497
0.2878979426230901 2.6701449648784594 1.761549596006751
0.3146162907940668 2.513080807841992 1.5922014044281163
0.3964346727587337 2.448927596260735 1.499870802754528
0.4602159463559708 2.2582575653500605 1.139467141423209
0.38016920756925354 2.463880355099209 1.3831966000016123
0.3171608124999984 2.545297679009302 1.5904080892096233
0.2680771895325926 2.4204007325381656 1.3942610098686437
0.3099193364324833 2.6199599284240453 1.683553921114919
0.40225200048567145 2.3580292522545863 1.3968818237199352
0.3173793183821702 2.7561224783760845 1.870391317564557
0.3215434700054411 2.609142815583656 1.7088580930581565
0.34074407530504286 2.487864556182127 1.5844454825385443
0.2302484104228218 2.5324523287203973 1.6028650936922157
0.20621195108228202 2.525209618348133 1.6009891973200059
0.2711251262608869 2.315808240829796 1.4368212873878627
0.2677371706898031 2.5027035956925205 1.5809876779124894
0.25574781000691277 2.468928812787191 1.5800084241982826
0.16869722102831797 2.442514219723023 1.6390688506988924
0.1837997187784176 2.4563867679360674 1.569380832338348
0.301196423023666 2.3598339272006887 1.5295862042238413
0.3047825324070175 2.6264371764143135 1.7972691085970134
0.31985025394633215 2.4082013079927562 1.4575929464515693
0.415705016206504 2.261018482186169 1.3523000272938195
0.3000617692294684 2.335847540186282 1.4239711066687235
0.26891745071789225 2.6692527420273113 1.827330227018178
0.3926750063637154 2.420109736984084 1.524670812408734
0.4028051421012814 2.2626383558148073 1.3733171583321448
0.28739875460175257 2.349839800106403 1.4657088521132855
0.2442837223472702 2.1315369178538175 1.2557336106318115
0.2275221153785162 2.3295751201516626 1.5042942185075885
0.17831314809233706 2.46342912678504 1.6573196800312304
0.264129573332179 2.509650674764881 1.691491631567792
0.26677595682155186 2.378955060883714 1.5047280142565689
0.2710109282704383 2.0762530623532554 1.1745651080939208
0.29377984241025085 2.0358593019519833 1.128094043864986
0.2223549899514704 1.9332425573317253 0.7963019388443935
0.23801726851403307 2.1642068069275835 1.315940739787218
0.25436709002201824 2.1630858807021793 1.2173690910710808
0.200072156218673 2.2925720668022618 1.3704102283261714
0.17074461947289465 2.370921076708954 1.5287083942304076
0.2389243009368003 2.367081011235414 1.547755263726874
0.14538387557850876 2.5357906412791578 1.667594124931681
0.25146961376265514 2.4401873602077466 1.6485490473975901
0.2556626955721639 2.4150607135864126 1.5774801988995562
0.3357386910211932 2.4385294534651902 1.5952773837235674
0.2788344801001416 2.56855273052544 1.68558944809029
0.2394729823083023 2.531534125176245 1.6668525461114878
0.2506938660369264 2.590350130870736 1.7691350967267276
0.35490389365816855 2.5025592338004845 1.6442670121938532
0.3152944097561363 2.4228721368730235 1.528290516030934
0.22584116248626784 2.4549809566344676 1.5552574347009358
0.17001273336590825 2.406144845242731 1.3561332146718184
0.33245138675299724 2.477909844144202 1.61634484789074
0.26217800112571477 2.59872390071605 1.7928150889823447
0.2525229834149753 2.4636828069943832 1.529044505134111
0.23690483423470968 2.368625877150867 1.390698194178548
0.22953620572204564 2.331351789071693 1.4035140151065713
0.3354480223510456 2.2456801228158283 1.3863007851164135
0.3056820472839498 2.544228111399064 1.7056432151662004
0.31815279569715377 2.6316400383003584 1.821990718464818
0.2634123638062716 2.6794543976061314 1.957606192134628
0.28444003398581846 2.4487891794396894 1.5843855685309522
0.3289580652266658 2.364497685486064 1.457322185430604
0.35541735905321675 2.150878657220991 1.3032760121458198
0.4152742414898082 2.0659230950379492 1.1329443435214803
0.4110326844629223 2.063259678821707 1.1577619843541929
0.32942278511130474 2.228697341892905 1.3366730528826936
0.29411273038600977 2.313262022707321 1.4165262313019826
0.4875642971462125 1.8267971954995936 0.7772472550729342
0.5243833123724061 2.114345552818368 1.1843528504318979
0.3439845305589277 2.3838534862074297 1.5130330512340926
0.2706011319009854 2.396773428051199 1.4971248381921676
0.37138157993657395 2.2581322819072014 1.4377642096017822
0.27147615887608856 2.2023073756937173 1.3279561747094344
0.27896838410163305 2.3114496558542164 1.5112612687996347
0.23033110500985274 2.2243217126191994 1.4077139640694851
0.3775126439092919 2.362031112610874 1.530648883937597
0.343577212729806 2.108263361225022 1.2528715584886876
0.30013254550708696 2.2695742770624006 1.4201690673036125
0.2484237283531235 2.39457104943964 1.4690576480061153
0.21628756397012802 2.2263172567896756 1.3694204660167675
0.27190657377840266 2.4240260044087907 1.625020166163114
0.21429130040731884 2.3459608886024803 1.5694377301526465
0.2314598230660519 2.2641309257504627 1.4108332652993236
0.2681505112396345 2.486929926199369 1.68776868288315
0.36097407116651375 2.4596011066777 1.613650443183663
0.3566032365438737 2.311742463504365 1.4954674539269601
0.20508954060480372 2.123804288006552 1.1792577697601219
0.38255965887989535 2.3999726211027435 1.5417067225088759
0.3030720173491583 2.3338825799954086 1.4973604314991067
0.2370662182321046 2.456817444622148 1.689032683228828
0.2280061005986719 2.482963900246284 1.684512681311335
0.15012051658964945 2.2494107837557222 1.345631450971364
0.21001723291372945 2.1658921156829596 1.3811887968321694
0.22754526005101516 1.8476306087205987 0.9932732242249515
0.19931159161403736 1.946272255571605 0.9827811778816252
0.1521913643811845 1.8041306248361124 0.7715409081062259
0.16608038100187958 2.208315635021872 1.3695426067819338
0.18337281076506157 2.4119112028710976 1.644808351204571
0.2842666060653844 2.3990302373889936 1.6101297238235444
0.2696795963113654 2.285669232348603 1.5277920831074894
0.2900003787358419 2.0846561359247167 1.3204238569581952
0.2694285300022742 2.113038986686645 1.2550740165771286
0.30177916434998464 2.1861588868249853 1.3757185021691682
0.3876490684389484 2.2721216029072617 1.4536242529712806
0.35938992920009544 2.301790793718109 1.4092260401529915
0.3957880286252843 2.1636468635871933 1.2993702929320903
0.45175959891886297 2.1048807526297915 1.179021473210425
0.27862494590843834 2.3140334435749463 1.452819957209622
0.24865605303904642 1.9652971058992834 1.10380793609932
0.2663673542745543 2.481396794176257 1.6678184075860394
0.23508701652576766 2.2744864103039255 1.4502113091152389
0.30922341260328634 2.2163447821359483 1.3492995698965904
0.30859303614281697 2.095758417682857 1.2466606812480194
0.3192640604425917 2.2240155388078175 1.381770829540545
0.25524120831308866 2.0759077042582197 1.1603834121096541
0.24716519366638148 2.3086423031546808 1.5179948057653103
0.36348985022560654 2.413326921508813 1.6603938363481958
0.3446489843675731 2.2894195585439165 1.3542169297668867
0.3579982336393208 2.198273435182832 1.3431942166922977
0.2849516768957566 2.157534666447947 1.2876478161027087
0.34428684157995143 2.379093254370108 1.5183969419563061
0.37741695625024957 2.211570017550708 1.3754162641678591
0.30122613073421306 2.471126123397879 1.7037222455965153
0.2721970310400799 2.143027119605139 1.2988975131271159
0.28726697159395614 2.1720147031429278 1.3954688825979227
0.2717230897979691 2.1900170907631367 1.371300580756351
0.249464690812215 2.365208786586664 1.58396639535537
0.26042400758369183 2.237984867614579 1.35290733881435
0.2520759601377594 1.9288777435553799 1.0920065307643012
0.2242762516955305 1.6692915372943022 0.8277853731083349
0.18002839633615014 2.0683686713619944 1.1019014447314541
0.2907589036435739 2.2759918549870464 1.4636766321570966
0.249790135400231 2.399362475218355 1.5791372192446107
0.2318799766831993 2.300575398812939 1.4111695565564044
0.24098070030010174 2.462197493545796 1.533616282724357
0.2944644271109088 2.190883491832375 1.2801115829215475
0.2706398538407576 2.344270757915032 1.471761352791451
0.283464324137624 2.4158330072637586 1.5785210123247682
0.27210005574111107 2.600788682242071 1.6516934875071407
0.23290411419651275 2.520793945155896 1.6974855548674022
0.2627844535547992 2.657858619500117 1.841446209614958
0.24506680358895463 2.5693482873062563 1.7078920816688319
0.27919977334870505 2.496504971964906 1.7322414378154964
0.2581456672791692 2.4339633485618277 1.4086092667843935
0.26831683943408263 2.5232049886819574 1.6082720521788718
0.24274367664012492 2.3485004698051255 1.3680107167077924
0.2566036454041307 2.6013596678941315 1.702430808004699
0.22745320545296824 2.5061554721923898 1.5473128158789864
0.23619450767946 2.680353734020603 1.7226217857767108
0.2223992036351514 2.7346268041020707 1.8301717878452726
0.2737181374725178 2.688642856615673 1.8450143356760935
0.28557590005974515 2.4717765012749524 1.4500835236518288
0.36621928589476505 2.1768236518330664 1.1321651743590748
0.38003770666170816 2.3445267818034403 1.2755713776214777
0.3367810233318238 2.5679780415733915 1.648621426039483
0.2830094765774494 2.57014845956783 1.6998680191926745
0.34717595504245446 2.5835397657293133 1.6213161295557543
0.26644504178713146 2.3000910798722054 1.2435850763444405
0.32001900020562246 2.6940341380839663 1.8292512304330097
0.34741748581113613 2.431234712038612 1.4705439667494924
0.33808098138288256 2.5987870649200118 1.6758398802041021
0.28610832656180096 2.8170462445539624 1.950344743058025
0.28104565676980664 2.6655048930952456 1.7598981869154782
0.3457589382116498 2.682912175908112 1.759042166449759
0.35581188085164095 2.353804526382246 1.3112251258037702
0.30758568604949704 2.5106520000623966 1.536163953025953
0.21682743355304207 2.4729031648725472 1.342289149310929
0.3440998500619485 2.434841438409072 1.5556108820277579
0.3516941328957553 2.624492231389182 1.7336261194047717
0.33435666054616686 2.6908538610568065 1.8241490407333838
0.35019663253786987 2.457169256000097 1.4771129468986233
0.3542517037451793 2.3243667739585296 1.3736323961628738
0.4156088848281991 2.397477292012056 1.4309367804914792
0.4111033094799563 2.5926214751078533 1.6663003989479863
0.29661689438256134 2.8142512160637922 1.9131761038721995
0.26883973356806395 2.744555505062956 1.8413050571751586
0.2845055965909923 2.4286428862481295 1.493475161172759
0.3407332040085005 2.4222901604833873 1.4804996614134884
0.39353338845268077 2.3676579560254614 1.2793979291332838
0.3518539691748002 2.5785411131324767 1.6125577994195488
0.3750799583747509 2.577600886786361 1.6129233959080276
0.4243258484801288 2.4321212540841275 1.453185195743022
0.3141251131685359 2.35339333597279 1.288872910863573
0.33408956720332755 2.337805161954216 1.3964356395597906
0.34088709566434255 2.3153458058481053 1.319494390569924
0.2671100173127567 2.2963717450288295 1.3634898378855527
0.22791508688151144 2.666549372180236 1.7913040263589683
0.19867824671629647 2.6951933166356437 1.7780922106543668
0.19708858750367175 2.40232665448018 1.4008170330808656
0.23775952712855086 2.3023206022771725 1.3805885537636216
0.23056131649559514 2.074199600378357 1.140237378944727
