0.9999999999999949 1.0 0.12144729193916594
0.34422460181997183 0.8824981915761101 0.687154644512932
0.23222837565649213 1.3271944773980182 1.1101301727573278
0.12616312478722833 1.0891041022538872 0.7118159540344118
0.14181208107891646 0.9455657083236763 0.5145769657631508
0.1655978771234025 0.9123331807299404 0.4713698799365846
0.2204038890988358 1.0536702192122172 0.5703230610204696
0.24596007958553376 1.5355134410808502 1.0268799692190542
0.2693419617729661 1.7691724651237086 1.2435384326702723
0.2563930394446364 2.0734050212736324 1.537751882155984
0.3421699498724729 2.0627176513642898 1.566552302163811
0.3887201983667143 1.9524780338057897 1.3591934809342745
0.31148112484319734 2.139172672868893 1.5285179110133598
0.2606239587351958 2.2835023035071833 1.6410958092170473
0.28153526719342964 2.3407599556055962 1.6104810070854172
0.28021836657814886 2.214756783035011 1.4051424010959401
0.2759994785526411 2.1683329420849846 1.3405163569320655
0.29215919285516057 2.216585047054571 1.422624008094379
0.2728447635334374 2.338972033276197 1.5117731894714364
0.25932141795264146 2.4014445043166615 1.5384769328422638
0.274665574847409 2.499087280667391 1.6984486348964853
0.27446742004928515 2.625670029878209 1.7990846356595824
0.3287164806070688 2.615331961993801 1.836186394696438
0.2986645999254789 2.390734716267238 1.558671056389834
0.2546129116270742 2.673881534005704 1.8868743005326454
0.2842310458141411 2.575196510912497 1.697173233024978
0.24922397594197132 2.564286006506663 1.715004731763947
0.20886882378512 2.4873586939161196 1.5696184731393694
0.24558786455115195 2.473169603748959 1.4905511853091957
0.15813068168930278 2.375853925497926 1.5086638523702727
0.20141112480863962 2.4910937084659777 1.5535647196620481
0.2836967488366924 2.5455572526701333 1.6108491761089823
0.4100265178099843 2.2931369992584156 1.3328746297568
0.3581492107419194 2.697571055921907 1.7970385321510052
0.33966084628887805 2.584552618244592 1.690709230414587
0.3230186953541756 2.425008480397535 1.4135913616345743
0.3626374461877107 2.47496869895168 1.5926054046395268
0.32214785035373006 2.6345283745995207 1.7819370832514547
0.27238412526138034 2.7047452666737177 1.834790020058712
0.17056288374000228 2.2727314031725774 1.3332989695164568
0.24127509330547403 2.401010584204313 1.3624636054617412
0.20538763216866895 2.3431228503205994 1.423309699155801
0.2051114618791948 2.648571466054589 1.7024278043777643
0.38072459789688656 2.499440172130414 1.5352369994328774
0.3332421718528042 2.6794197008638476 1.8016916241979826
0.2583770020285898 2.365720220989207 1.475682003580679
0.24255781146915023 2.525834597866355 1.6096356708605823
0.4011569086600927 2.384027751114546 1.357304473852139
0.32570658329596075 2.6162334910309366 1.6996421160694328
0.26794451701041716 2.640506573975276 1.7738123749090924
0.27618431771356217 2.5999409915587735 1.7042086428075707
0.3148237747283824 2.557994369541526 1.6332581818417065
0.41743336910369755 2.437222317673623 1.5693107721062964
0.4419175838110756 2.2738801747877213 1.3764204449853223
0.38899682760047416 2.312126287133154 1.452435481715173
0.3956281371741085 2.108070454021197 1.0338326510354494
0.4370946169329045 2.306777216628085 1.41146669194499
0.3100750511639093 2.3229862237327255 1.4656851059709022
0.2817765726292884 2.5274790908983746 1.7512310887098077
0.2963236273187104 2.5543785405270625 1.774441451225499
0.24198112559068752 2.458414341462862 1.656026283400165
0.2839622983514518 2.518039000690873 1.7004843442052648
0.29861054553617605 2.4003117701899193 1.6298829708707185
0.27792723442262335 2.175102161592659 1.2634646977583777
0.22198407385800706 2.0754493128158225 1.038069133520186
0.3370398390434418 2.259622586750938 1.4724783465874989
0.29420458495417107 2.357762818761265 1.5726438043367044
0.1820557223978261 2.3231904507217713 1.4390930557027404
0.22440632347403486 2.419200913255092 1.6351274326227718
0.3204097421342572 2.3160925340864904 1.4550037630877337
0.4335536285046131 2.1593984196292455 1.3153079840875979
0.34426936671332237 2.441356596132024 1.615659581897883
0.3027147725474857 2.4978412568493136 1.6852778649233782
0.24477875263400628 2.5018156869593238 1.6244867074907654
0.2624504716862447 2.4142879858845 1.4718494321402509
0.1411820090467309 2.427646349622528 1.5395953545694536
0.15163552078148745 2.2766143538696406 1.2995835716633564
0.2514682019810177 2.3159785854275854 1.4262267700091418
0.25520815295168814 2.4535805300152966 1.6286444999787966
0.3258609393170588 2.3544412764510727 1.4128594292335648
0.3050288866910007 2.5944662839690893 1.804032234904019
0.2813041299386425 2.6333148379810196 1.813761984541745
0.23153334860530814 2.5203823972536843 1.7096198288495366
0.2127909126453799 2.2911425944677313 1.2692877821049109
0.34189692925241966 2.2457484729837307 1.2160652694730218
0.41221006252962417 2.2066977465457485 1.2960590657996294
0.3544836837584151 2.3670407734354675 1.4919001112324086
0.2603933042917401 2.250693399648491 1.2645923006607531
0.22005004945704124 2.338184278731805 1.448231361889399
0.26703693187308397 2.5355242308599935 1.6174688617800168
0.36262642256851835 2.2233332508665784 1.2992184850023814
0.330121444500572 2.4516354137283325 1.4595398218876225
0.24522698556215458 2.6053277545223867 1.7335491710049173
0.22544103730179288 2.689447729622973 1.700067563815633
0.1686905205498911 2.700400970083085 1.8473881610660237
0.2780517786933862 2.5098404302687514 1.6039355329401597
0.42550349002709253 2.3134776421100756 1.3521881459641047
0.34764341765756274 2.11500541247468 1.05003220486637
0.3185494527265025 2.4442325074440427 1.5792113600596622
0.2299691317936563 2.677278117766223 1.8247784414878563
0.2814064043376074 2.655131140494726 1.87693939653521
0.3622430074001639 2.481110504738235 1.5153650342313623
0.2941210163536468 2.1390672357258365 1.1578412402713552
0.4122292502111586 2.373005556972913 1.3178982495997016
0.35764111793940384 2.5035633865611127 1.647087905139247
0.36687836277928537 2.4922576988993175 1.6375773151228536
0.32138805608388865 2.2949112967101994 1.4374998868330477
0.33738081629073036 2.204181721459843 1.3015982987009538
0.3666969793408337 2.3780460821841096 1.5121259273420558
0.37644819508968924 2.1472578309020967 1.2682517596102414
0.37108417014327894 2.4687999219736474 1.67895874979732
0.25248133426741515 2.1063220055213328 1.2222777361991988
0.3259073008616991 2.307825528113226 1.5167083590924029
0.3358260176306089 2.238681744844629 1.4371385066867985
0.3313646124209717 2.290627297197757 1.5236766317808381
0.3433337458943677 2.151431917372396 1.2388701286550765
0.32560607750310194 2.3780511613039423 1.6154040991155736
0.24708513428235424 2.3087708870185644 1.4899565048791312
0.2169917230639336 2.1597383025631114 1.3252959910964193
0.18103492193169798 2.0764455540335356 1.253005977696955
0.20298264410301245 2.0206115523310775 1.1507336644042998
0.1590265565421139 2.2906920630423833 1.4551703012818882
0.23657653166918838 2.144608101100782 1.2935903871432992
0.3317919977313341 2.186499731355467 1.3704880023835402
0.28123721610846136 2.1611599204054377 1.4017854598008885
0.2800790115480971 2.3433050866230865 1.5712129872958291
0.2877523901987164 2.4362658113181053 1.6427733645149998
0.39118493565697826 2.194649563755323 1.3143041361161438
0.32780407774721193 2.242990266309693 1.4075534270473657
0.3353938951124897 2.374401171034429 1.5679717549219507
0.2730326428231174 2.3072483672298056 1.451961565662993
0.2539130570027548 2.4598620928916612 1.7015179729303322
0.25514173780415433 2.4848296662375464 1.7263513512761512
0.22848393699544978 2.389050787379589 1.5778924377546182
0.2829828540602211 2.3794865057646333 1.473280101423713
0.21413576664559833 2.2380645399756722 1.3660941289805737
0.22887660547809216 2.255531831826188 1.342753871557904
0.2574585587475366 2.21840759547824 1.2756698160141648
0.2679094138918672 2.3175663791899344 1.303346737685923
0.28814924316411006 2.353490520007838 1.5204903622009989
0.35156673695477064 2.4625396498875016 1.6887749856406988
0.3729614312419712 2.1884496956864323 1.2643239778489086
0.3868945308790332 2.4425448500015605 1.5666207591590946
0.31368780939882357 2.272614512395945 1.442962135874492
0.2906464335260594 2.2775727088719013 1.4637302363652323
0.22619372851709782 2.4460103052971807 1.6218238203279314
0.17588012701506203 2.0704330325328426 1.1574532148555403
0.22224795741108946 2.181915429400524 1.3584223332523535
0.3260111454603901 2.2046471875690328 1.3582293134727308
0.3039313891890182 2.3161207390348744 1.3153147826071339
0.3259406562776651 2.1457177790169797 1.1598740437460606
0.4033921051282801 2.404249322409741 1.5047510706179874
0.32729001087671894 2.2476283954534075 1.3598449709053055
0.367987261438772 2.468751634220208 1.6804769240778217
0.3086486169970137 2.7038814513679963 1.8888969352968628
0.2996128962150523 2.4466166038917123 1.598146784425949
0.405981034656994 2.3649774826107373 1.4525070267911915
0.46987931297372254 2.0305311523889586 1.0471934473843039
0.39843619353059667 2.5163730518700698 1.6399887169695249
0.3017798484829373 2.6884760995061683 1.895880939002308
0.3477614593498071 2.52159793121615 1.6378827108343788
0.3402077357266816 2.394647783267799 1.478467650236846
0.2875377714730138 2.379209917011281 1.3634775511070707
0.33459715463235107 2.4061826638724857 1.497259411953586
0.19792152307672467 2.5380156129719036 1.6545714463504322
0.25868481062256765 2.5346445181293875 1.7334492024686228
0.24309554594965088 2.5568142048184868 1.6911820151126755
0.2729794073299691 2.6478340564614045 1.7262730433738498
0.29598119676164825 2.3391012447564354 1.3337807036166243
0.283127257363461 2.3260445054695165 1.4057772811502354
0.2952208096540875 2.2657204546731973 1.2092192076338124
0.23544282458760837 2.565513193779312 1.7473028460235092
0.175850446960932 2.569282926369513 1.7732174248616102
0.21364158401208516 2.446416069075084 1.5853869389413235
0.2829831766659996 2.1582809061108468 1.1973859362380872
0.4009116572837043 2.2969512628619944 1.4700847004229822
0.3793303592229421 2.3806179928206608 1.587838826938392
0.3169731255824284 2.4995753359243236 1.7002365142149674
0.18882894117142576 2.372853056767183 1.5818506345112913
0.2636822127990837 2.2430587074501354 1.3609109259589485
0.2888619300586962 2.463767833542371 1.674341427409544
0.3734629074688228 2.2550428225955854 1.35781553720624
0.32612111834360535 2.1283068872609934 1.2450504758299195
0.28042315850393995 2.396740312113223 1.6116839208909541
0.34343714439762646 2.3837509456524115 1.6267816261143762
0.29822328142889093 2.157917903623329 1.3425145750785552
0.20800378674019213 2.219392807097813 1.374210075485946
0.2782335343303971 2.4837770010579616 1.7028310851485695
0.30701874385524547 2.5452903495613874 1.8056156636083176
0.3041136430534651 2.481717687382524 1.6885149322651907
0.3342072603708922 2.2161914200663495 1.43205405732742
0.35605130579818667 2.2118194331862995 1.305806976022474
0.2307351985205491 2.2400439525506277 1.4195263115087775
0.3325942731510509 2.1605816017524284 1.2334285043334023
0.3169795416180381 2.2013625570184256 1.362669877377763
0.22559691187053452 2.5768860875604958 1.759740351103999
0.25122356355134756 2.524735213710684 1.6460132854633942
0.2746758993809604 2.4206321641512485 1.5814003579135107
0.3755521820164668 2.3415189283567424 1.4646966790477318
0.19390238560388412 2.3534162319627328 1.5490660399792926
0.2791275679139911 2.491878068164105 1.595891802920566
0.3359501321390716 2.5500744120929184 1.7175954390325445
0.42085338978720666 2.300674664447867 1.2554138829484687
0.22127168679266174 2.418739560656978 1.5805231544394724
0.3083228159769816 2.287569473117239 1.4396946930772854
0.35047781720599197 2.4466472304289386 1.6041286291895667
0.32504593351002137 2.4350310888451334 1.6283718865936108
0.345901547205587 2.3743869902800325 1.4728327081177721
0.287518966229609 2.3695800609431426 1.4300777263924733
0.324257782645164 2.50967854872389 1.6434307342923415
0.2052640722119603 2.463872181531133 1.609856914000282
0.2933429128911986 2.553900858349091 1.6548926589704718
0.41646287011746624 2.25022988266429 1.3155349725308374
0.4951907176241271 1.9153644347678571 0.953807785000606
0.4983643147773897 1.968713616072469 0.8723082401293811
0.23773909702841436 2.4314593270134703 1.5383270837154264
0.17996249410057136 2.466300032365348 1.6060981354001762
0.185845430964172 2.4372784412703727 1.564576183126058
0.19934024148450977 2.4494749371586244 1.5363302519310298
0.2893342125878267 2.151652654104796 1.13663281053623
0.16245648457053238 2.0760805253194037 1.0739391603874848
0.14902693946843493 2.437182063245499 1.4733860642998386
0.22785514896284115 2.2338215424144634 1.3247010504130732
0.26443479116735596 2.384251678935044 1.541406112549278
0.33694872812442284 2.338591859075343 1.4802898818105161
0.3488180047607841 2.4904922778084093 1.5969033613314074
0.2825413179242125 2.4918823131666024 1.638462505633029
0.21428515547132806 2.7850553138243175 2.023621209954617
0.3184224528869874 2.3412567370111863 1.4539247422313049
0.34331903107747114 2.65909219420259 1.7282470172221693
0.2644800938189406 2.404825831725983 1.445277721587325
0.23748922939160583 2.5371263152675927 1.68513308574178
0.23678436081634374 2.497473377970419 1.5918446873840582
0.18619998770226484 2.3986784481373733 1.5150634639631155
0.2577161164505527 2.4734946891773215 1.5675669217384083
0.18089628512115688 2.613773218081212 1.7376383684132042
0.27570197005171865 2.5877243876749745 1.7131507693785124
0.32138923750410203 2.3418343474892995 1.409767059461033
0.343109681000287 2.4275796841967336 1.4833674374253925
0.33790765228948905 2.467422270333727 1.6486624017986782
0.3454896790098761 2.486285083255442 1.6003610665129528
0.34992680127350895 2.2848842151090794 1.444498186044791
0.3018832193116276 2.524163359759358 1.6714542599198285
0.30085094421882164 2.5066636008109304 1.6244402857402558
0.30210879713622935 2.4424098581115534 1.6179816467718142
0.2793865142327004 2.394300788556771 1.5586207320814367
0.36059931253864785 2.178957766931748 1.1550217220329488
0.3253233101507873 2.279535771468603 1.404982567515918
0.18655820185753194 2.245396082178255 1.381634980403313
0.21253394463055944 2.4225738106363623 1.5581332531489391
0.2385940955345442 2.427520442781496 1.6442243504669771
0.21634572357697784 2.6146094926253283 1.8708908708078194
0.2757174079707409 2.471266775680259 1.7140321085209262
0.2699658983382 2.010888278387885 1.1057320656147063
0.48893670219317004 1.9065781821567942 0.9299422795943973
0.41398687706075143 2.4074730892050487 1.4740753654598533
0.27044786361337525 2.5040949330616336 1.57674008045098
0.3674884718177674 2.433964321702854 1.5323431764994158
0.26836373334258484 2.5551701155857676 1.6481947793224587
0.28301119098904304 2.2596938116873733 1.3933520309068883
0.2687062881855572 2.082970894807575 1.1973773973255373
0.3693386561820865 2.4404392738382077 1.566802508986341
0.31951148979198674 2.373056514863858 1.5012917535988919
0.24002601703389925 2.4999780953949133 1.6595509879011032
0.2792979796927247 2.3863357049380043 1.514484111342774
0.3052209903118368 2.276625622661973 1.362537750070545
0.3719261554224037 2.232023371388758 1.3357751972515282
0.340692077046603 2.4292616107421394 1.5897396648388478
0.2807398958736349 2.522172609093768 1.7130802773231415
0.29468405382125507 2.4513829582899316 1.623811989427434
0.2301064424272248 2.6414466059642505 1.8182922564232218
0.25991382060479357 2.497145631162036 1.6254716673047025
0.2923518425001158 2.269083994888398 1.4256831574120308
0.3168823047284423 2.3525247794020543 1.4852278568725954
0.17825913905588237 2.367715105690553 1.5949240564200315
0.25687235802795405 2.364145213436533 1.5335731815858606
0.3255680595641262 2.2829443662738536 1.4309790310373112
0.35110486388144396 2.1959093410129036 1.2919510349636136
0.20354881712123324 2.1370037131917594 1.1978665265375896
0.17778758995305116 2.295315812020834 1.375745619196168
0.14733492086076244 2.096409863689915 1.1681844579025245
0.17432329094114818 2.4098790481561627 1.6189301904825284
0.1961587880995072 2.233543542451201 1.401998444846151
0.2885135482953134 2.112265720154223 1.2464549752363105
0.3495318350879249 2.260656869605046 1.3740048986469635
0.35201221541214567 2.4530622021754636 1.6687135986779515
0.26389726204803676 2.507215923910388 1.7267090184384906
0.3239045259227739 2.3760709638069737 1.5645373402031746
0.318532191080098 2.280499999450724 1.4439457031829326
0.276137473227408 2.167993159592561 1.1441376846278783
0.35528583327762214 2.4194587208488576 1.5427161403075949
0.28128910140658503 2.5370927165821056 1.734189043729729
0.2700936981971905 2.48512344507307 1.633781279382854
0.23444403029423827 2.463838772525304 1.6051805694415648
0.37199640422925084 2.297048237834654 1.3699851521570805
0.3499071271861985 2.1769395756299996 1.1505369979442936
0.17230106405177376 2.2345696672799993 1.3562306079342565
0.20857258082168642 2.339418391885294 1.4995944871647227
0.3685187440892233 2.4170547615045663 1.5439568847257858
0.43805917505822545 2.0882777019547234 1.20417804175833
0.39344494398613294 2.232027896152759 1.361192935856863
0.29488171928158113 2.458519003741378 1.6338137185783508
0.21239868686399263 2.4662499721374385 1.710525045387912
0.3046416231960637 2.63406116524195 1.878505054154096
0.32547032404887927 2.330594461474002 1.3858048094242457
0.363154503208742 2.2628346670510946 1.4272667574931908
0.269273868232435 2.5255111662174166 1.6863620766979064
0.29174951114471187 2.4061988790828637 1.5760787096764899
0.2858860141456271 2.254554314061646 1.3336901972473427
0.33185126561742506 2.3426434454968965 1.5094886240144656
0.4524879272471018 1.998080170377372 1.1319870294403482
0.38115556742869733 2.314412601324529 1.4901359507705705
0.29165152631506386 2.5381127883249657 1.732481659767974
0.18010391326198433 2.3556992645850023 1.4845593767327174
0.3863764477802679 2.4012737831818316 1.6156478306565123
0.32136491642829423 2.292996772739183 1.4325107626741913
0.3558037918655687 2.370720810500135 1.4884981000639208
0.3623898536356516 2.27217922200897 1.3798938168842267
0.2903055520506559 2.273323500363917 1.3954088265898765
0.2096716717127052 2.4887690686269393 1.6263774216898543
0.2482173056528244 2.4022811528735852 1.6309203646520958
0.3266428863877075 2.404525938084222 1.5346860818865369
0.19520869191641343 2.438659106444234 1.6364327698460308
0.2294120191003135 2.266950271443838 1.4613400470332158
0.2752661460029969 2.2198438012050166 1.3345005394999014
0.3653805093119898 2.3656539369411154 1.5479269606975983
0.2908742741668933 2.272790149004617 1.4127263188215688
0.24178415286190263 2.3933224021227253 1.6369712753288737
0.32558822362415213 2.3363952478996404 1.4913804744502397
0.29932777386511666 2.1430963872784896 1.31760691160265
0.14811286115414893 2.2993712509208555 1.398024383149342
0.25062074139951 2.096625322452758 1.164358555769318
0.33802072101089353 2.0120040406681485 1.1985935243267414
0.23825873359237154 2.1428317656921956 1.3381420768481573
0.1834030689108329 2.268564225732245 1.4072311048880415
0.1891271000314616 2.2657940483383263 1.466242668302895
0.2955220078818619 2.14631334575105 1.3764395033798982
0.336469525410038 2.227873473397772 1.3987535027460851
0.2812050826520622 2.0989819281899864 1.2425956221491974
0.3136891211188832 2.206602950656938 1.3416223124078186
0.27413506654559977 2.329694619561674 1.5274159738669264
0.23671965183040317 2.421488114104006 1.5837064017333347
0.4147141056933301 2.1538316093650147 1.1890108442884826
0.4059977450805166 2.3512399832166735 1.5384917687113946
0.30971055972794503 2.3876770524766155 1.5667089416666466
0.287966596195282 2.513357044426229 1.6470389390244882
0.31566737864266137 2.571294792948832 1.7423710325849573
0.3552090176213468 2.477436345066086 1.6480904903742633
0.3442250999619051 2.5024532650050006 1.6320444653819581
0.2030811996988744 2.2882666189450442 1.4381209592966282
0.3430917418264081 2.3174829482162744 1.4038327650994744
0.30016424869227176 2.363414207453165 1.48680182174879
0.20590918709588976 2.6216289473983867 1.7701360700630602
0.23470304444336085 2.444068053274113 1.5478708110490174
0.3578659748819505 2.5212968673294687 1.6058887607122523
0.30643094053840003 2.6774465416301374 1.7950856298664009
0.2413949584947756 2.396061220196348 1.3694002994931813
0.25874803210927183 2.6278197424632155 1.7179445072951438
0.3690589582295522 2.3978406013430416 1.486517562798189
0.3842260399230669 2.5472124158479716 1.585205411828895
0.2570344409459152 2.671844869718148 1.7644027646499745
0.38551177560913696 2.4996188973950946 1.5836132583251321
0.372811785814399 2.513424458442535 1.6396052499709644
0.3242901440060969 2.538902482165047 1.5149046631019567
0.26724834398188124 2.5703749538058607 1.673752436952099
0.35536572261432064 2.5449962956710155 1.5672987664816136
0.3106491490062993 2.7664266804745545 1.9078142301423866
0.2825108767907329 2.556297404157251 1.650651012928634
0.3117330642560519 2.401223874396486 1.4818063326385953
0.26801354253591636 2.2836124175648194 1.3114228698219454
0.434135632949695 2.1750254389943224 1.094131901328001
0.3686732145374178 2.489491457390748 1.6623521634355836
0.3194324052698657 2.5692120251086337 1.6774912556361747
0.29681843703960986 2.559687408632687 1.6654615931977554
0.21932827283302328 2.3429758675051393 1.354456443209969
0.22337427411782373 2.0051168950921574 0.8070000856724614
0.16128093995732437 2.315721513135367 1.3450526762416366
0.16174773607277826 2.369754935209553 1.5070351324971214
0.20832212111407833 2.4514836168727783 1.609511872985016
0.27727810871923847 2.5965081222908557 1.7459855024400104
0.2978875995797075 2.4270720905451437 1.5409290631863815
0.3652404055435966 2.275150231269394 1.381166871210115
0.35605012108125705 2.160987223961494 1.2669852430152129
0.3142332615988593 2.5972237140480567 1.862114405396837
0.15943780601301866 2.4852479619497676 1.7292083459095733
0.16625902590445849 2.3795553019682063 1.6223714537011806
0.21207334634138703 2.4038386219877577 1.5717082999953484
0.2482949103724737 2.2658907425995243 1.3708500429213293
0.16689513099766315 2.108598694835944 1.079987903304227
0.20162181584787858 2.165190866277867 1.0862504445869585
0.2717489225602456 2.1425580401848583 1.3868961795728016
0.2618748373014672 2.088222579846584 1.290215612774633
0.2725368204210089 2.0443544577184998 1.3081547843977812
0.21756209100968382 2.2511888634033452 1.5306477843464776
0.34097752466504044 2.227588683758239 1.4833324961999954
0.4167800438410415 2.0615644566357405 1.1640036042359398
0.44212489871370775 2.222892412184677 1.4263550332155632
0.3492014732501126 2.3779113479437983 1.6203699340287225
0.3881089998408636 1.8056263797887315 0.9627873163621664
0.31579418525701014 2.201943664804683 1.4254758804458156
0.2490678081937075 2.1344972962999753 1.3231597496384233
0.24741608607001342 2.0452790081964825 1.223526795057663
0.2544526141689879 2.1796134774224565 1.3169700820650627
0.35017136661984777 2.107430419345207 1.2317867009045405
0.4128116703387906 2.1842623236527476 1.448423395729316
0.3921699768288299 2.1666679215531155 1.3521229951896547
0.3739811386712428 2.076951786525036 1.2338093142665612
0.3711570433573277 2.161892215712007 1.3486011924667445
0.26242893301089154 2.395386653985297 1.6231949468426408
0.1919227579789777 2.2911312486905024 1.4103958269061951
0.1927027696993874 2.12890758908231 1.2453797281962173
0.15547231254883637 1.9671332215968935 0.8970041074057742
0.18393848821855752 2.155519970720307 1.2552329164965113
0.2772674489584324 2.3136724903290884 1.5132419913217776
0.44361639866130265 2.2166165866358702 1.3106102283935348
0.5035643362930949 2.028498835289216 1.13125571206738
0.5232449929171619 1.9043616818878881 0.9892701682379968
0.40670029747229 1.7361879683055854 0.8037037475048692
0.3961009950317918 2.3090698140240566 1.3602663203182062
0.28519032553378376 2.5620556775382126 1.758053310891287
0.2274324779011519 2.666720789257166 1.856014408346274
0.21242463347412513 2.439910685184011 1.5531130173037202
0.18107576149086327 1.864201529071793 0.7449631930817293
0.18768191476106633 2.0483249408082687 0.9654391807990723
0.15935349199060844 2.1688656856104713 1.2833720453710784
0.22374251696655648 2.512483909679545 1.6325743644254709
0.2924516964630714 2.5647453806837976 1.684718305875931
0.39819244775972845 2.205267589735919 1.2466318998124233
0.4515917359338446 1.9904725223021593 0.9232676126796044
0.3751674937937473 2.2102669973631204 1.3079346516752035
0.28616762850051986 2.4997838565493207 1.5832853306039518
0.23478244129227152 2.4344799086839264 1.5754465258601293
0.2170268048537912 2.503950396931728 1.6264105649329024
0.15993251543266535 2.2642004817517414 1.400673227791489
0.1897712463063265 2.149136007692395 1.0505853926646085
0.17414758887885023 2.2793186102175933 1.1756100943544865
0.1943992324320406 2.476644380225149 1.5155698289050095
0.16882332205669706 2.5436359967046256 1.6580172474962558
0.37378275883866313 2.4578994620846535 1.5913522730347247
0.4266695297994141 2.107346478689356 1.122585912086691
0.36197055054769595 2.364220837383499 1.4132227897922922
0.27288805396155885 2.5189674676675917 1.6183840983228321
0.16773603885249433 2.5431764978519116 1.6086576189047797
0.20529997733331087 2.3797352819268545 1.4520740102315333
0.15875898148191966 2.334341876909432 1.4137088370919164
0.16320204194250085 2.195625425370234 1.1669330632384718
0.20336472741224537 2.094814785246948 1.0681535478778654
0.22800483199767482 2.4262423029803366 1.4860893390187175
0.29893357464692977 2.425694770560222 1.5428545633169923
0.2997576931916269 2.397833054343032 1.495474308891164
0.3894707974980867 2.333865045920944 1.4684362182347697
0.4795348176448119 2.0637430612296366 0.9890376264101155
0.5215069163376609 2.094892083193813 1.0913557835752465
0.5182109707169235 2.2025157965677544 1.2857316057728616
0.22163200580183043 2.2360894459071865 1.267930354484812
0.20633206623986583 2.3551093783240935 1.4178997377766374
0.15931930198337071 2.6303895370866277 1.7759639379600132
0.2169119130930014 2.396374564158377 1.5466459305189624
0.26004779795025645 2.367575335509959 1.324354140878387
0.3028498179459629 2.2211604877624316 1.308693878580221
0.3787742655724145 2.08121978337671 1.0590505073644088
0.34489019537636456 2.2880847131631157 1.3533006650944783
0.256959488646291 2.4128441076843927 1.5706140229657302
0.3096329350473835 2.523503126576143 1.698268290682154
0.30009096410831043 2.6817932315227573 1.902729283043927
0.2511412643771203 2.4764894599325142 1.5622758725896475
0.39169678993531315 2.4938703084146088 1.706046823854193
0.36078062041137976 2.287516024389256 1.316291460615769
0.4363842036906281 2.313412009622536 1.423734529565864
0.4600453872667791 2.2521707134440496 1.3350510483251974
0.32462778191014596 2.591347351166134 1.75967630693861
0.37848992350103533 2.4688191462517644 1.5844300901949258
0.2915402150411656 2.444747332017618 1.5610975363038133
0.1832524984902318 2.291068343803075 1.3511827105192638
0.30548294076694854 2.467822786386882 1.5197301140334878
0.3668883478284877 2.5048853154122654 1.6936514526396536
0.29781485751290043 2.353349281794501 1.4806727739124084
0.2436551578016434 2.366428406765093 1.5543840536919962
0.19671036345118748 2.3000051042329033 1.3288956559012335
0.23789421068987707 2.3588639168894643 1.4356296348693105
0.33081659318127093 2.43873140389391 1.4763877171143016
0.21436313259199766 2.436880006911297 1.531751524238954
0.26654743308050977 2.622479329163707 1.7821156299056657
0.2892999806511696 2.331985517050526 1.4303543995598302
0.35862450871047963 2.508639808219704 1.66230768766478
0.3073103762663259 2.37583781458396 1.497078517805894
0.39867398317793584 2.438046281483085 1.4940510992372504
0.38393977552022285 2.467056067353048 1.5320008182870388
0.17981799851504326 2.4143877400374225 1.5857050011665947
0.18654750346840582 2.3738468757352718 1.481547408875699
0.18733707388099408 2.4103044451118127 1.4325959324666304
0.21793490501160984 2.305379430419298 1.454065498959277
0.24518416148179692 2.3127643251352437 1.4005984245145113
0.20176346211770482 2.372284253254913 1.3850652553800857
0.20279248635682237 2.4351394226397116 1.5912921868264565
0.3327322651013067 2.278498702963766 1.4116037311686864
0.32463389988915453 2.49204419935854 1.621599212640455
0.3338750691729979 2.4980665988609836 1.5767171244938494
0.191033693699824 2.3249347337740844 1.406997049128992
0.26981589814429435 2.567610809175426 1.7566684704069633
0.3173628457847395 2.6634016901446147 1.8791495237492775
0.41776929599770285 2.3146424966237116 1.4252411149291162
0.38482705344543733 2.3944033205557353 1.5158850750352486
0.2507126608519736 2.3546313906309613 1.5086100063409345
0.26620018156225433 2.4647310912302123 1.6334598543424126
0.32317000515518324 2.3600590919553954 1.5784398614531558
0.31774115484061316 2.1107834025991163 1.2119968655750248
0.2969188350659648 2.2692502199734945 1.406954192520337
0.3343288064735817 1.823625244287525 0.8579486916043086
0.35400666021636007 2.212229151478818 1.3303405650525952
0.28307311268641044 2.4204098178885354 1.6593671080515122
0.2540668764418357 2.472845637104372 1.7177228220421485
0.3200572806428155 2.2089671837265312 1.295568772353713
0.3318481487550799 2.255281549792439 1.4760045491682352
0.28600730437763633 2.3446943559521616 1.569964944519235
0.1871658222201106 2.2086438462322087 1.3893973148560468
0.2529133053670821 2.304256311888876 1.454338995993008
0.23689561018871796 2.68039878626996 1.9675326927447978
0.3275093770112119 2.3732815930299864 1.6319387094794282
0.40813294548411916 2.1310423213678527 1.1995412659279727
0.3856147178335141 2.3248665099793833 1.5372357779800236
0.3830117900215557 2.368833654569767 1.6411895683189617
0.4149730655255126 2.197924198938856 1.3973614185703334
0.4360916632310848 2.2584802992943422 1.486231593141506
0.44129263468573876 2.078071466854737 1.0973624194229494
0.31440154270854465 2.0559257946240583 1.1957942672868571
0.19202339556883957 2.3065067588227 1.497673689550741
0.20500526792101012 2.472353085230455 1.7205002143951016
0.19839932798550156 2.178047973628767 1.3145066878340368
0.3254043954919067 2.3159369611046627 1.54386402398307
0.42736344882828725 1.9856772583270896 1.0629895992048957
0.39134115930896507 2.033664126234757 1.1868927124587847
0.26488938521865885 2.2566992365521434 1.4899648993407237
0.2527222506989335 2.1408860467564574 1.3015616797111251
0.18571721323725923 2.1562594108280915 1.3231316158069337
0.16295430170708808 2.145041373462607 1.2773131385856802
0.18710563167665006 2.2036899607854474 1.2763715901740793
0.23994714156401525 2.4760999623563835 1.7293905345461182
0.3230455069038403 2.201855208841676 1.410809913571656
0.3569557446976644 2.1156951896139917 1.2665880537207739
0.3114119738849778 2.4643911774217337 1.6296620670213955
0.29248300899279084 2.353258259066907 1.5307608695929429
0.3065117230865287 2.4511792083119794 1.6689345594809395
0.2550266051499036 2.495773889838713 1.6737793746520393
0.3006859237674843 2.4586176418264687 1.6540515510669185
0.3320428512271982 2.315179041678739 1.4331846436533549
0.26171083100980563 2.549548573365328 1.679800347994944
0.10105924688080761 2.398771748200494 1.5261665387334373
0.14218015595766306 2.3670987780509734 1.4974067507140987
0.34534418682976775 2.5463135533056795 1.6909297234831548
0.3299312358276549 2.5034078642471305 1.5638298476193322
0.23926560877796668 2.217172655876453 1.2381748875347531
0.2351545568284679 2.440854659295495 1.5751710321011567
0.2366749941777882 2.4411542961557666 1.5804216556781043
0.27775707162764296 2.6277765887485693 1.741399243195665
0.3863195084503272 2.3983316698206245 1.4866610908467075
0.4586515030304575 2.2525162730042814 1.2502038807477527
0.3983859159549369 2.5367821429839266 1.6603577313904685
0.27994902227631907 2.615792217121611 1.7597232142353434
0.307934492346508 2.5672594715121337 1.7011611940050468
0.20959609152127087 2.3584696443735775 1.4069922058446274
0.36605272728421356 2.500007709578006 1.5991819584136076
0.3280567328309384 2.4418913696165334 1.5949885019854926
0.186550271367826 2.4169646967989387 1.5040528660943295
0.16804891056129218 2.384878278944588 1.4778486221836213
0.24602148440241497 2.3379221409292494 1.459398980741956
0.36093051474570914 2.389526868610373 1.4853334175061033
0.3982183528416745 2.4151281532572955 1.4960218094620912
0.4075129903526075 2.517280188047426 1.6589327944647014
0.2342699142899763 2.46350158672685 1.5693716042639334
0.22504909764688902 2.6720783058935305 1.844390083348295
0.2514322468185001 2.610289840038062 1.7344151156665495
0.3977499686905008 2.416638722722389 1.5011550146673804
0.3571077083254619 2.168622242602829 1.1111159034148126
0.25222800613962143 2.2035026764690717 1.2171598410882079
0.3443714565556332 2.5429069689014563 1.7133434545491617
0.3512403751316841 2.3563090295475675 1.563594957002352
0.301361809321414 2.281995268402769 1.3475168696727837
0.24972847884520247 2.636972801512309 1.8073249719118107
0.3210320234150756 2.4652037581933515 1.5163747200034796
0.31591923961639407 2.468695252626598 1.6487772023862732
0.3587493504200677 2.19705456618389 1.2892075657292983
0.25514060898493923 1.9213192136293802 1.1206180373148458
0.2950534345870587 2.233154249485677 1.414281575630255
0.31527303997651246 2.200770775255635 1.3653111541494967
0.25039710678865046 2.4181545032428984 1.5169582934089085
0.17223056700130243 2.188479586290591 1.1913755084063404
0.19412311693277368 2.35840540762282 1.4630290687427496
0.2275447708427279 2.417293428557314 1.526332066142046
0.30079686197559946 2.118854967123919 1.2066759471891657
0.2906860672093697 2.437728922677991 1.5899148781348629
0.23487449751564143 2.381809695630249 1.5505825468020058
0.3375622951716245 2.414622341909672 1.5872270477015469
0.28762178758988305 2.5266991350175196 1.7306795540874236
0.2688114348218738 2.3890665445264454 1.5542988292581423
0.271297978721282 2.2321524391025873 1.378745094262721
0.30947413923216416 2.2282990286933644 1.207584353558861
0.31092034588466255 2.612142697340924 1.724275331446677
0.218231131717973 2.3645768989152263 1.4435096672772494
0.18792651354808682 2.348630916740091 1.480813932807984
0.2310859337368091 2.5441610738909715 1.6362773203627952
0.28276001186338046 2.3707470695861512 1.4673198600807393
0.26019990313751507 2.1985455945083108 1.1473161897244573
0.27897864369184616 2.237515792615769 1.2175432666175576
0.2100017236150677 2.3857650169601086 1.4972842298705653
0.35042798236482164 2.5046473158242386 1.6974430646028733
0.3241214848473688 2.420261195950545 1.5894081313154935
0.15814415396592685 2.2736239454282408 1.3734125086764841
0.2326557791118338 2.5139952437682136 1.6461682116651286
0.5097274139077219 2.1274873298589556 0.9108271247433427
0.4419895603623077 2.38331126671054 1.512586561713294
0.337030539818239 2.688953849585021 1.8689456373316335
0.27415877610633027 2.7256522707603366 1.8739714900209603
0.21116537236489125 2.5814920315437693 1.6787269426199498
0.24094176160155473 2.6392414614262854 1.695221825801403
0.25468803190403333 2.42805101994448 1.5657314029857359
0.3739035663010376 2.28866021758537 1.3159731297530026
0.2649261904570626 2.4277803720010063 1.4087914318034758
0.23308222654646543 2.597109811609684 1.689639155954916
0.17175893673426063 2.52630296311373 1.6006678096780536
0.32357108056665645 2.394879068355502 1.5031982407182898
0.33653538319171783 2.1703972872507173 1.1309413623868543
0.2526814947541394 2.5342924506156397 1.5420748233956973
0.26304074992477416 2.662052384733574 1.876451638975207
0.252864769440606 2.6376223277258783 1.7269889247359145
0.2958065096319816 2.7366256289009248 1.8206493160647579
0.2940119247040597 2.5094176337299494 1.6909632109044659
0.3560017641962883 2.63483249399961 1.7990311667649874
0.40269162270667336 2.440115727521209 1.399570151030571
0.42345451704016207 2.206105435081929 1.267212397114335
0.4126632720222832 2.176272709956677 1.2134663460471562
0.21624038417094493 2.4004421003721896 1.4205602793587566
0.28919325286616937 2.323079556027959 1.4052509608932775
0.23901730519598322 2.6152615379926076 1.7887288551297253
0.15658907474657177 2.5610108023757245 1.6839275953180979
0.2367672271962482 2.549018472253262 1.617268137843207
0.2999876901334785 2.4838192914631856 1.582541628764718
0.29379372242947976 2.1571515232252603 1.185096061653217
0.247179583665089 2.561362989607379 1.7229917188017623
0.19205366086228345 2.352511443528362 1.489727133727668
0.2054302434816521 2.408098778226045 1.5428232458565294
0.3039452212266577 2.445045005313554 1.6029953200853906
0.3751306249053029 2.18651453011404 1.293000372744908
0.37641064638086275 2.369735586554854 1.329276539851681
0.28540239822990493 2.6460301378657083 1.8541248600491544
0.2641019643480969 2.4375114787992653 1.5744708909639322
0.2681790577082089 2.469348988772409 1.5567231273472557
0.31866387043644634 2.3416127336647468 1.337379382652402
0.26121426329964337 2.315005038196152 1.4197793590704118
0.1626644878038962 2.5115539538506515 1.6888373405222683
0.21333288019551938 2.525037513623298 1.6670816471438554
0.19020941845057604 2.5658743175937517 1.7635182036841215
0.23396382112665348 2.521256140028253 1.6261738857300831
0.4085356281643253 2.3314908272332 1.4366186759304542
0.34622197613005024 2.416017412503683 1.5138886732043622
0.2554896678532162 2.592399639597501 1.7430189563119116
0.1655824760207134 2.542308117323889 1.697643596949762
0.36649797461268124 2.477831485540608 1.51544017608084
0.43041564596570997 2.2442655491973325 1.2664105310138307
0.41829816394281505 2.1727936509917574 1.2077579402993772
0.3310670180628968 2.295038850200428 1.3646242546978125
0.2762558585202054 2.6260260610013724 1.8220186093824733
0.3069051269849149 2.5631569961664815 1.7225886253439315
0.2934271422237024 2.6098207970595495 1.7930550460372165
0.22695690224116713 2.4783752888423685 1.5692556949101817
0.38629013937582224 2.385467839385111 1.4978195871130324
0.32931555140842506 2.4743289906084405 1.58249461141587
0.276627081996851 2.375454063285958 1.4708519403335851
0.22431971557958702 2.3262363891133244 1.4416119233037121
0.25299003894466265 2.354555148409912 1.4381041131955696
0.24978994077256098 2.357207548474303 1.4775690819093423
0.33494732432825464 2.3761900556195767 1.4759868017402666
0.4242576690793214 2.2456136229213044 1.295280298264993
0.33971786422446865 2.4637599373141903 1.6341327151788767
0.27839544572525954 2.324594803076975 1.382804404521771
0.19778055466511335 2.2943690719364427 1.4413161787687059
0.3401912976629815 2.419872543321915 1.5424018020318038
0.32227991423855074 2.4313726905068944 1.537622543350591
0.2505605714499569 2.518497612080147 1.6995805426305164
0.21226377328364748 2.4975662216045937 1.6374750188466594
0.28342916159901355 2.490755063244882 1.6457253883100638
0.340398615688527 2.2417946333337486 1.341839349287612
0.45112840413134975 2.304330234077109 1.368116682735509
0.4164492202907768 1.9965104014382948 1.0130605281189902
0.3217068690934334 2.303868316800583 1.453052073150629
0.2585670026659397 2.5525229714278437 1.7195223953884606
0.23150634331992406 2.416925348462669 1.5731870598406208
0.20320445715145874 2.329659711627697 1.363280838445781
0.2107086091872369 2.222452515346962 1.3213708609269739
0.20933337545133598 2.368686554749988 1.5236370052146793
0.17836810510352086 2.4640006378313064 1.606768069734157
0.26410631709758 2.541395583382389 1.741053530028895
0.2383113813267483 2.3725802472853657 1.4969738063743752
0.3708394444662338 2.2750648391251813 1.3658617152321668
0.4022523730527601 2.387063406605023 1.4694166319728363
0.30529743730325115 2.5168910881062203 1.6618615761381514
0.2550996578035719 2.3726720152589436 1.5164845414632104
0.2425508537808843 2.4998559497878667 1.6077891289490966
0.27890440468894806 2.385240430068809 1.5148931967919055
0.3277470104095202 2.48231367765723 1.6604703957075808
0.332635147362919 2.295787364818039 1.3785179534740901
0.2903440259327801 2.3794372240956743 1.520545904525398
0.1951557070509123 2.450294248106267 1.6342532283559206
0.1727309641408637 2.3713795873815027 1.538968804668266
0.23555284209691066 2.434818439398492 1.6495033643689594
0.2733089887636662 2.291426870787392 1.374925531950618
0.4071910827545172 2.313843380261943 1.377833905593477
0.3764041716196974 2.306365542175874 1.5143133496528498
0.34413738275687805 2.449499694188392 1.6115033711240625
0.26586527082817935 2.7184681678429636 1.862865864709132
0.27696986475872176 2.63813827982533 1.7773564348785702
0.20212612209839065 2.6404796704190376 1.8364392450794413
0.24562928839247927 2.3074740427118843 1.3540815914166435
0.4199456976862706 2.0691517459340503 1.075976719073652
0.3872473379374746 2.274636809981475 1.3553309698340368
0.42147266727246185 2.444922421283335 1.5705589984969697
0.38709913006694496 2.3180019496187474 1.3785513107266791
0.22738391969168445 2.6076756521511983 1.7903123960514793
0.2619883946218401 2.648488579558232 1.82149728209186
0.3214779247736372 2.481895964895684 1.6140150179447308
0.279081024798717 2.3809805104535062 1.5285429766690772
0.2738216450414439 2.5982362077522247 1.7823325899215932
0.2818828067598895 2.4510357481781195 1.5117095990231202
0.19713851385948053 2.0743746237771177 1.0406430375207218
0.37017146165449966 2.26165534025336 1.3687061659885682
0.38769518322016483 2.4357045095685548 1.6326847604771952
0.348489934390484 2.5393273355254244 1.7280641847116263
0.2883122310046276 2.4194916994358504 1.5555117996284398
0.2419102297682643 2.3779790508031433 1.4359146257405064
0.3231588871118544 2.458731133394999 1.617457758626661
0.3437554693130693 2.340925254960342 1.4435734554950257
0.26325260831369923 2.3105110637822195 1.4872952797574126
0.31437034984353585 2.3798273028073775 1.5366049026066089
0.329612039320343 2.281268214072222 1.3651541770657136
0.29845011122153076 2.434596009895122 1.6078075739437714
0.18992546658319095 2.3540555477539575 1.443247392219148
0.24549156308145229 2.446561123606285 1.6554218675087478
0.32966812073070423 2.4839133095358874 1.6832398854424728
0.32973272382019403 2.318207318294297 1.4495932489862486
0.3905003684996094 2.2584597495195555 1.3994753073264905
0.22588300954060633 2.2048517736831514 1.2688130007763303
0.2491592727293796 2.4820078370938967 1.637178924596232
0.2724967458205523 2.394642003448673 1.5803950642234479
0.3223206786542977 2.3692897241989135 1.522185874516508
0.3302264853414754 2.3177996878070997 1.5044500698121965
0.15387639173914305 2.486079959866044 1.6970325766619059
0.19921980846320483 2.3007162739707736 1.490497421538007
0.20862913402002445 2.3117648957267356 1.4642681357785496
0.1892196706446949 2.147100182623637 1.2569030545460325
0.24062113355084902 2.1048821878619535 1.1040477189312647
0.258738417067532 2.34386231370178 1.394920307964927
0.25522540232008634 2.4885371959788896 1.4098541884229623
0.3409230604520445 2.3913972989163055 1.486932571610266
0.37121421092299006 2.3479057151324882 1.5084017125887168
0.2741092835738066 2.3375106676568405 1.469065445111623
0.23660240125160975 2.0536127494749206 1.0226049421152228
0.3635085402558808 2.621150419938512 1.7786381071789377
0.34772981370376516 2.636707705956408 1.8102642688057298
0.34614179905853204 2.5555336265593445 1.657627516008948
0.3366279131081747 2.4614407262703586 1.4950286098932797
0.33845831525061576 2.3581091515564405 1.3917509138034265
0.2641692104593394 2.6779800546370627 1.8155567738985299
0.28620533579205454 2.6424998877017423 1.8110459120998297
0.325090622331864 2.4879910620678203 1.6933501713218186
0.3165532379035622 2.4948773144165233 1.5887262876923105
0.2574174830062756 2.460706774689776 1.5031899346441484
0.31744006503514305 2.1008492326737835 1.1665094487067662
0.34886343368763767 2.411250663429549 1.5944904208641124
0.40523789269425875 2.3144475265610764 1.3069417249999318
0.38020777345349904 2.5069502586540886 1.6647809775689917
0.3686771702547071 2.4336272623287365 1.6123373121597733
0.344125198593883 2.1861827378606655 1.2388304923649325
0.18420405326596112 2.424139221412238 1.5324109013698897
0.25958916440500285 2.7468644807559013 1.9039127293558216
0.27520894358580184 2.506345143607509 1.704199110865917
0.33847132292887205 2.4952003735841917 1.588913826950569
0.1974990140060545 2.3876782021048575 1.5718095189786958
0.3283184456173795 2.4788665853964864 1.5990575776281812
0.34628979087776174 2.4283157357393588 1.4432496090226554
0.36574748811533914 2.1565665503359974 1.2127760185968195
0.30045077717957286 2.5244659619655576 1.6702092202980239
0.31963802982799955 2.499461053733309 1.6139529903646668
0.2678752182946856 2.580054169066853 1.7371452580269124
0.228203823940731 2.4808138119123533 1.623979753405969
0.30313120132783566 2.32917878041072 1.488392228697411
0.38114774837069393 2.4068538168540483 1.4963092413259778
0.45512426330873507 2.1297493176748397 1.0806159062534508
0.41171226226556107 2.164788831928448 1.2006219456468057
0.19301752521254523 2.4630680175035993 1.58522554210903
0.2374377356134792 2.4770680053263883 1.6067541892679755
0.29511639216482505 2.4559744194755693 1.5922960338717072
0.311115561308314 2.3545818072559737 1.53446499528086
0.1716957841281963 2.272590354466497 1.4025730796803835
0.22340123176740195 2.3726865276541353 1.468665473654168
0.1995091344242895 2.349545447447045 1.5239839088661704
0.2685731986497808 2.4854227096815373 1.6361506238369965
0.3527857469343911 2.5162270798408293 1.704454862149434
0.3534352705550399 2.385991635803161 1.5497354453775303
0.3474082483584466 2.2707997102828497 1.3938330788954696
0.31782913315125566 2.289411650536071 1.4875042121947202
0.31014033060344026 2.3143901722729368 1.5053147921294825
0.277120896841784 2.4704547995870474 1.702496328316897
0.13216191783261197 2.274127055679433 1.3883655135544948
0.14946962502557218 2.070070163112682 1.135243367937159
0.21161463048465654 2.349382080283037 1.535621673077398
0.18475790383750007 2.2274803195899175 1.272646795214838
0.23857481714904064 2.4907665649265076 1.7535426274406738
0.2293167278060386 2.376493570047346 1.6298268098743425
0.26796773445439515 2.14524032654188 1.3182453779079601
0.32803290689499714 2.1145480345636862 1.295163294678221
0.4010986247681267 1.7010366756286812 0.8194295302500179
0.432689034987088 2.0687492418181423 1.2201615362020448
0.35443373920075033 2.343358983177529 1.5504763208337882
0.2959771411150126 2.413741299528444 1.6615644943763028
0.3467133005602109 2.2777190301582144 1.4625524804644932
0.326113846534037 2.390781072915857 1.5503597948580718
0.25914420860049986 2.126599753681348 1.218384923134506
0.22125106274356168 2.4361894116346354 1.587678975767042
0.215221212966183 2.4116134802229268 1.5029847478702698
0.2843033160334836 2.4219687132763754 1.6409738151394737
0.2869613963482366 2.344889288142885 1.5089200073565079
0.3142088623497666 2.1236227218762025 1.204576334086946
0.48358920957368995 1.993428061485673 1.0659367736067127
0.4482408548433389 1.9647969044891593 1.004670659383379
0.3548362557943592 2.36012612815966 1.5007144474029128
0.21112039113764372 2.5352072223220476 1.697282831003075
0.1952914718798377 2.656422832818016 1.8786018113864165
0.253555000340471 2.377422555384636 1.5114518327176734
0.23753241040845194 2.2762131323347408 1.3585907904241077
0.3133955716118995 2.2461093844180007 1.39092346475632
0.38264507222846694 2.3252541729268597 1.5687650192346738
0.3753720481549629 2.2871460248878 1.4618068576496195
0.22088212988608752 2.474102685000957 1.687996794527067
0.3784017540705806 2.3782652243808955 1.5422750063589348
0.457358474235334 2.039228037272192 1.1401858044572704
0.4488476738057367 2.1007504772385386 1.1467345418226509
0.22397594366247556 2.5227151883171595 1.6796705249502255
0.1924059625238233 2.591855168324459 1.8223072033398917
0.17073825161834685 2.488833351508739 1.6529140774225803
0.22928985521273232 2.469694470697743 1.6464294880465808
0.2210540385545236 2.4785872775754028 1.5332791940367736
0.27322324529078523 2.5433786733242654 1.5404862590755823
0.2689085510937872 2.5553236098622234 1.7592955968918855
0.287285887584804 2.608277374568194 1.8259709906918324
0.3437676189679624 2.3662398264996063 1.4918765025639678
0.32909728582913805 2.119308158649712 1.2165470080088236
0.3075303844456261 2.208237375232687 1.2709873939351728
0.3445560303785038 2.462021558556045 1.589235938193265
0.24876119858534687 2.393257961075768 1.479931400319475
0.26416573822972805 2.5205397123848776 1.684746777503155
0.278604064853076 2.330207982268435 1.4320280317082323
0.2137701346493993 1.679494168399037 0.59123649539934
0.19811704097556826 2.4437564432606025 1.5279680501437842
0.14561076498934353 2.5941133931786045 1.7469907079637699
0.1459187223215352 2.386967482265811 1.528855712202603
0.27045210067177594 2.51158849346536 1.642501745203591
0.42275774410533995 2.1768275120675153 1.1679822183892867
0.41166709247066163 2.1256265526475024 1.2712724543604976
0.25713080583548104 2.4457579760451535 1.6220924391043585
0.18990915161644456 2.533496976257626 1.709422658653775
0.16149510269125802 2.576752334462579 1.6914298173609614
0.12462448770220534 2.3680846603003016 1.4613415236130525
0.16250096993376875 1.8591486708604799 0.8042937188655629
0.17849188799992563 2.0275764774271168 0.9342940816988081
0.2753060729781752 2.5683870954366363 1.7960837706835144
0.3009838357795052 2.4518259064065395 1.645382935800545
0.3550235981020574 2.4968952766713643 1.594037687746449
0.540178326337217 2.1042144022454505 1.0729375532974919
0.45068200707502587 2.1720646905228675 1.3158755329956102
0.29652182782642805 2.030719795240492 0.9766994155665263
0.35375208258322643 2.3975704110762237 1.516590012891158
0.3275868360625938 2.576030576265138 1.7023793828525284
0.25514872431127533 2.519705034931414 1.6876039434629784
0.26587735144891356 2.580853232891723 1.6384612089889976
0.23576101504966665 2.416661444110616 1.4738995674078053
0.23707114679265506 2.3253587649263223 1.3171733667575412
0.30751005653738395 2.216505143302821 1.1068759929742134
0.2342690145804444 2.3740047835436826 1.4380559180575472
0.3060368528398615 2.3451403542655034 1.458748888811157
0.3376986473252599 2.2547497310900897 1.369962448642498
0.2671166627644842 2.4794316764519837 1.6077000244573905
0.3540774760564432 2.253536475781274 1.2860766389391511
0.3422647351524405 2.442993589079412 1.6071055241542165
0.4146379471990528 2.3347475155147195 1.4634886853843765
0.40857618192526607 2.36410177315645 1.5379351122784666
0.37672126952217977 2.283453921677455 1.4045361667956209
0.2914662186551603 2.423166354512389 1.6289854024629
0.24924285905460564 2.546334965080156 1.7234979533966537
0.21838316533581098 2.4300701315370334 1.4997120863937385
0.2605733635918799 2.3810751214548964 1.5114927571887522
0.3137642852397146 2.193550801244192 1.2855048185742282
0.3114884855467288 2.140792122979618 1.2150906247798634
0.20041284541611923 2.268363449942569 1.4182571937136292
0.1908327032344556 2.5427224465748663 1.7430942242930187
0.25799954268394737 2.2496058955338056 1.32586841635085
0.2717767945348332 2.3345831584276526 1.4071714966130346
0.3158648125382402 2.56300910462269 1.7270288381221268
0.30096730111309716 2.601014202528886 1.8093760398054322
0.24904901815154756 2.705535713581401 1.8834379936241876
0.15662558877514784 2.240134984398095 1.2614227095864337
0.39112185423172285 2.532311633721197 1.6308351926877962
0.36414320018465257 2.432981795290071 1.568477334031707
0.3235320750750811 2.3325408550218345 1.4960421300389115
0.21538843342998634 2.345942334013297 1.4217329550107995
0.28984069815980806 2.4228814483401395 1.584414979225524
0.28664642993589845 2.0806361411874854 1.1306722081389005
0.2422035270679654 2.119852074982982 1.1524986819586869
0.26681409885015844 1.8138347958658867 0.642114207020515
0.218340675439612 2.4062498910489434 1.5516910565415443
0.23779045132493482 2.306745102722781 1.508627762542341
0.22817214774847153 2.4308426598403625 1.6260486837798886
0.2354621113515803 2.6452666510007843 1.8817224910794628
0.3039407395082832 2.504757805231129 1.681034724702403
0.3202409557021642 2.167540424619629 1.2644535385545452
0.32919401172913293 2.205469219551992 1.278433979639279
0.366674328897146 2.3194293653817137 1.5049306426534936
0.27874362369811856 2.479096227554378 1.6624763372705984
0.29321488134847645 2.3552711669929156 1.4843599252483684
0.3155131047812134 2.335378672845921 1.5677298642378283
0.3077505697221281 2.2968115968911094 1.5213011227920776
0.4399745297857883 2.1816503056013867 1.23869780152004
0.4245180895304223 2.3469224511056437 1.4885322817417506
0.3282292656600708 2.3934312934313318 1.5961378386309193
0.30259746506497787 2.435524471151818 1.6949077926889264
0.3183497276979694 2.429746891332772 1.6657854146342326
0.16812320996780403 2.276038135341191 1.4347078422900066
0.3485502804675889 2.200419517396493 1.3356946593575874
0.38218568711476897 2.253000650744947 1.3980547776999148
0.34096080734007417 2.119283709429176 1.1776332584636502
0.2417050008578044 2.3734373558635045 1.6404164929718221
0.26480682872528966 2.51827097764907 1.7426207799780233
0.25775645389518737 2.272469766466977 1.4549076513756305
0.2939217232549413 2.1213004902407495 1.1990518840101656
0.1489725499422479 2.4419513458409425 1.6840594061882734
0.17086526452792603 2.3023578274652463 1.5419082716273882
0.34651099476533154 2.254815039029294 1.4318199591191185
0.2949250393705268 2.127468386040278 1.265540304869678
0.3821933060792924 2.065983625655259 1.2470249410618797
0.49709460713733106 1.9328901072457894 1.0378133928783448
0.48465131472588696 2.2768326495396085 1.377601920875712
0.3146111549656608 2.263179704097789 1.430404592244713
0.33066780360945935 2.5256901073646403 1.6693588933601957
0.15809569237926785 2.316739488364372 1.4902720778419285
0.23399221574268883 2.3022184300032924 1.3350629698126506
0.19419304523052747 2.419411304715928 1.5915760683857747
0.12160114841713147 2.4508457330612337 1.6446033956200596
0.18293796334787815 2.3564672141222904 1.5020982488446275
0.27127993906456693 2.391805761525574 1.5822173461964495
0.3405330319845645 2.3877274247926814 1.5201540132826155
0.29745566022541675 2.462877431742384 1.6380308801273535
0.25697254387927393 2.3705198022204685 1.5153669361239073
0.24575733068510638 2.3142913705881343 1.3718540493149953
0.2547585709587539 2.2238893871887218 1.2450354987639094
0.3713877908359097 2.2045962137401216 1.3459601280726605
0.37843586031789705 2.2905328319856424 1.332985901788741
0.30422551528887704 2.4121532364698903 1.4365503951523522
0.18979605683473805 2.390861248353175 1.4780814181721116
0.23306192379174834 2.643672465734167 1.7659695321937838
0.23805287469459538 2.569817915072002 1.7100613044696358
0.2570443122135812 2.5220942532563724 1.6713077218237609
0.3007339883916768 2.3948956731815754 1.4880441614714268
0.2949014653301626 2.4528753991814893 1.5552944151940726
0.2907173325095712 2.5299822321765495 1.6167177331117562
0.3360377827178735 2.5788105976674203 1.6281483987698626
0.29315904316527536 2.632287242191259 1.7084374022901658
0.23151163753849252 2.4649553739496852 1.490934515493171
0.21577954016445056 2.691512018452545 1.8118463702203673
0.26058905800847576 2.4363138284569774 1.5304871618596978
0.2921491645031728 2.70823020758931 1.782254570385391
0.3073102005380095 2.54156686578071 1.6468908611608675
0.29591114847488664 2.4550259418580858 1.525237864160045
0.4052247430798356 2.5846883107699883 1.6920488269747522
0.3799090180415237 2.5171468899398417 1.6375182628330949
0.36919886945945823 2.502046924877934 1.50091246062947
0.3254651354845674 2.7446674286063044 1.7667134576470127
0.3058082140577818 2.508705856536085 1.616317306498899
0.34136145536907647 2.544004382073571 1.691812294779491
0.32127870035242834 2.5709457836695715 1.6346003824389632
0.2818039185865814 2.4690879845243603 1.576909831405998
0.2562667070639796 2.3133948070154573 1.3566617803256913
0.3142008955147166 2.586862249708036 1.6807794738676185
0.23389776685042887 2.584970435938839 1.6951634713030093
0.2980382213327146 2.5813660194077377 1.7469285437965982
0.33114670598682067 2.655050482502268 1.7646872525810966
0.3090624544806189 2.377969940506054 1.5055802090837556
0.2598759748724909 2.2081251412323093 1.246234982264183
0.20981871203572985 2.363948850420921 1.409908653570434
0.30379417816903376 2.667473260278909 1.8640893757292514
0.3486657595628829 2.5498992560417215 1.7009698198775662
0.2871962412920768 2.681495324450747 1.865241478439742
0.253839808043948 2.383808896348954 1.4860704714931472
0.3610647895005831 2.2790269380320245 1.3053558080882153
0.3502732407547702 1.9787477426114226 0.8158842788410329
0.29822194912816125 2.3369309809897763 1.3167801353873285
0.26603346203710965 2.391346320004694 1.5384372881186796
0.24430146428772648 2.476392089419376 1.5855864143738727
0.23712511562911284 2.539248258458379 1.6924249880903162
0.41191266781368047 2.414530399994828 1.5083672794014096
0.3447499795985559 2.331934146973623 1.4274080781965244
0.3563321498682266 2.1722432950488684 1.2719263077172394
